M2/Class/transcript.txt
# Compile of async_fifo.sv was successful.
# Compile of driver.sv was successful.
# Compile of environment.sv was successful.
# Compile of generator.sv was successful.
# Compile of interface.sv was successful.
# Compile of monitor_in.sv was successful.
# Compile of monitor_out.sv was successful.
# Compile of scoreboard.sv was successful.
# Compile of top.sv was successful.
# Compile of test.sv was successful.
# Compile of tb_pkg.sv was successful.
# 11 compiles, 0 failed with no errors.
vsim work.testbench_top -voptargs=+acc
# vsim work.testbench_top -voptargs="+acc" 
# Start time: 22:41:09 on May 02,2025
# ** Note: (vsim-3813) Design is being optimized due to module recompilation...
# Loading sv_std.std
# Loading work.tb_pkg(fast)
# Loading work.top_sv_unit(fast)
# Loading work.testbench_top(fast)
# Loading work.intf(fast__2)
# Loading work.async_fifo(fast)
# Loading work.intf(fast)
add wave -position insertpoint  \
sim:/testbench_top/vif/wr_clk \
sim:/testbench_top/vif/wr_rst_n \
sim:/testbench_top/vif/rd_clk \
sim:/testbench_top/vif/rd_rst_n \
sim:/testbench_top/vif/wr_en \
sim:/testbench_top/vif/wr_data \
sim:/testbench_top/vif/rd_en \
sim:/testbench_top/vif/rd_data \
sim:/testbench_top/vif/full \
sim:/testbench_top/vif/half_full \
sim:/testbench_top/vif/empty \
sim:/testbench_top/vif/half_empty
run -all
# 
# === GENERATOR: Starting write phase (FILL 256 words) ===
# [0] MON_IN:Started monitoring write interface
# [0] MON_OUT started
# [1000] WRITE | DATA: 0x00000000 | STATUS: FULL=0 HALF_FULL=0
# [1000] Driver started
# [3000] WRITE | DATA: 0x00000001 | STATUS: FULL=0 HALF_FULL=0
# [5000] WRITE | DATA: 0x00000002 | STATUS: FULL=0 HALF_FULL=0
# [5000] Transaction: WR=1 DATA=0x00000000 | RD=0 DATA=0x00000000| FULL=0 HF=0 EMPTY=0 HE=0
# [7000] WRITE | DATA: 0x00000003 | STATUS: FULL=0 HALF_FULL=0
# [7000] Transaction: WR=1 DATA=0x00000000 | RD=0 DATA=0x00000000| FULL=0 HF=0 EMPTY=0 HE=0
# [9000] WRITE | DATA: 0x00000004 | STATUS: FULL=0 HALF_FULL=0
# [11000] WRITE | DATA: 0x00000005 | STATUS: FULL=0 HALF_FULL=0
# [13000] WRITE | DATA: 0x00000006 | STATUS: FULL=0 HALF_FULL=0
# [13000] Transaction: WR=1 DATA=0x00000001 | RD=0 DATA=0x00000000| FULL=0 HF=0 EMPTY=0 HE=0
# [15000] WRITE | DATA: 0x00000007 | STATUS: FULL=0 HALF_FULL=0
# [15000] Transaction: WR=1 DATA=0x00000001 | RD=0 DATA=0x00000000| FULL=0 HF=0 EMPTY=0 HE=0
# [17000] WRITE | DATA: 0x00000008 | STATUS: FULL=0 HALF_FULL=0
# [19000] WRITE | DATA: 0x00000009 | STATUS: FULL=0 HALF_FULL=0
# [21000] WRITE | DATA: 0x0000000a | STATUS: FULL=0 HALF_FULL=0
# [21000] Transaction: WR=1 DATA=0x00000002 | RD=0 DATA=0x00000000| FULL=0 HF=0 EMPTY=0 HE=0
# [23000] WRITE | DATA: 0x0000000b | STATUS: FULL=0 HALF_FULL=0
# [23000] Transaction: WR=1 DATA=0x00000002 | RD=0 DATA=0x00000000| FULL=0 HF=0 EMPTY=0 HE=0
# [25000] WRITE | DATA: 0x0000000c | STATUS: FULL=0 HALF_FULL=0
# [27000] WRITE | DATA: 0x0000000d | STATUS: FULL=0 HALF_FULL=0
# [29000] WRITE | DATA: 0x0000000e | STATUS: FULL=0 HALF_FULL=0
# [29000] Transaction: WR=1 DATA=0x00000003 | RD=0 DATA=0x00000000| FULL=0 HF=0 EMPTY=0 HE=0
# [31000] WRITE | DATA: 0x0000000f | STATUS: FULL=0 HALF_FULL=0
# [31000] Transaction: WR=1 DATA=0x00000003 | RD=0 DATA=0x00000000| FULL=0 HF=0 EMPTY=0 HE=0
# [33000] WRITE | DATA: 0x00000010 | STATUS: FULL=0 HALF_FULL=0
# [35000] WRITE | DATA: 0x00000011 | STATUS: FULL=0 HALF_FULL=0
# [37000] WRITE | DATA: 0x00000012 | STATUS: FULL=0 HALF_FULL=0
# [37000] Transaction: WR=1 DATA=0x00000004 | RD=0 DATA=0x00000000| FULL=0 HF=0 EMPTY=0 HE=0
# [39000] WRITE | DATA: 0x00000013 | STATUS: FULL=0 HALF_FULL=0
# [39000] Transaction: WR=1 DATA=0x00000004 | RD=0 DATA=0x00000000| FULL=0 HF=0 EMPTY=0 HE=0
# [41000] WRITE | DATA: 0x00000014 | STATUS: FULL=0 HALF_FULL=0
# [43000] WRITE | DATA: 0x00000015 | STATUS: FULL=0 HALF_FULL=0
# [45000] WRITE | DATA: 0x00000016 | STATUS: FULL=0 HALF_FULL=0
# [45000] Transaction: WR=1 DATA=0x00000005 | RD=0 DATA=0x00000000| FULL=0 HF=0 EMPTY=0 HE=0
# [47000] WRITE | DATA: 0x00000017 | STATUS: FULL=0 HALF_FULL=0
# [47000] Transaction: WR=1 DATA=0x00000005 | RD=0 DATA=0x00000000| FULL=0 HF=0 EMPTY=0 HE=0
# [49000] WRITE | DATA: 0x00000018 | STATUS: FULL=0 HALF_FULL=0
# [51000] WRITE | DATA: 0x00000019 | STATUS: FULL=0 HALF_FULL=0
# [53000] WRITE | DATA: 0x0000001a | STATUS: FULL=0 HALF_FULL=0
# [53000] Transaction: WR=1 DATA=0x00000006 | RD=0 DATA=0x00000000| FULL=0 HF=0 EMPTY=0 HE=0
# [55000] WRITE | DATA: 0x0000001b | STATUS: FULL=0 HALF_FULL=0
# [55000] Transaction: WR=1 DATA=0x00000006 | RD=0 DATA=0x00000000| FULL=0 HF=0 EMPTY=0 HE=0
# [57000] WRITE | DATA: 0x0000001c | STATUS: FULL=0 HALF_FULL=0
# [59000] WRITE | DATA: 0x0000001d | STATUS: FULL=0 HALF_FULL=0
# [61000] WRITE | DATA: 0x0000001e | STATUS: FULL=0 HALF_FULL=0
# [61000] Transaction: WR=1 DATA=0x00000007 | RD=0 DATA=0x00000000| FULL=0 HF=0 EMPTY=0 HE=0
# [63000] WRITE | DATA: 0x0000001f | STATUS: FULL=0 HALF_FULL=0
# [63000] Transaction: WR=1 DATA=0x00000007 | RD=0 DATA=0x00000000| FULL=0 HF=0 EMPTY=0 HE=0
# [65000] WRITE | DATA: 0x00000020 | STATUS: FULL=0 HALF_FULL=0
# [67000] WRITE | DATA: 0x00000021 | STATUS: FULL=0 HALF_FULL=0
# [69000] WRITE | DATA: 0x00000022 | STATUS: FULL=0 HALF_FULL=0
# [69000] Transaction: WR=1 DATA=0x00000008 | RD=0 DATA=0x00000000| FULL=0 HF=0 EMPTY=0 HE=0
# [71000] WRITE | DATA: 0x00000023 | STATUS: FULL=0 HALF_FULL=0
# [71000] Transaction: WR=1 DATA=0x00000008 | RD=0 DATA=0x00000000| FULL=0 HF=0 EMPTY=0 HE=0
# [73000] WRITE | DATA: 0x00000024 | STATUS: FULL=0 HALF_FULL=0
# [75000] WRITE | DATA: 0x00000025 | STATUS: FULL=0 HALF_FULL=0
# [77000] WRITE | DATA: 0x00000026 | STATUS: FULL=0 HALF_FULL=0
# [77000] Transaction: WR=1 DATA=0x00000009 | RD=0 DATA=0x00000000| FULL=0 HF=0 EMPTY=0 HE=0
# [79000] WRITE | DATA: 0x00000027 | STATUS: FULL=0 HALF_FULL=0
# [79000] Transaction: WR=1 DATA=0x00000009 | RD=0 DATA=0x00000000| FULL=0 HF=0 EMPTY=0 HE=0
# [81000] WRITE | DATA: 0x00000028 | STATUS: FULL=0 HALF_FULL=0
# [83000] WRITE | DATA: 0x00000029 | STATUS: FULL=0 HALF_FULL=0
# [85000] WRITE | DATA: 0x0000002a | STATUS: FULL=0 HALF_FULL=0
# [85000] Transaction: WR=1 DATA=0x0000000a | RD=0 DATA=0x00000000| FULL=0 HF=0 EMPTY=0 HE=0
# [87000] WRITE | DATA: 0x0000002b | STATUS: FULL=0 HALF_FULL=0
# [87000] Transaction: WR=1 DATA=0x0000000a | RD=0 DATA=0x00000000| FULL=0 HF=0 EMPTY=0 HE=0
# [89000] WRITE | DATA: 0x0000002c | STATUS: FULL=0 HALF_FULL=0
# [91000] WRITE | DATA: 0x0000002d | STATUS: FULL=0 HALF_FULL=0
# [93000] WRITE | DATA: 0x0000002e | STATUS: FULL=0 HALF_FULL=0
# [93000] Transaction: WR=1 DATA=0x0000000b | RD=0 DATA=0x00000000| FULL=0 HF=0 EMPTY=0 HE=0
# [95000] WRITE | DATA: 0x0000002f | STATUS: FULL=0 HALF_FULL=0
# [95000] Transaction: WR=1 DATA=0x0000000b | RD=0 DATA=0x00000000| FULL=0 HF=0 EMPTY=0 HE=0
# [97000] WRITE | DATA: 0x00000030 | STATUS: FULL=0 HALF_FULL=0
# [99000] WRITE | DATA: 0x00000031 | STATUS: FULL=0 HALF_FULL=0
# [101000] WRITE | DATA: 0x00000032 | STATUS: FULL=0 HALF_FULL=0
# [101000] Transaction: WR=1 DATA=0x0000000c | RD=0 DATA=0x00000000| FULL=0 HF=0 EMPTY=0 HE=0
# [103000] WRITE | DATA: 0x00000033 | STATUS: FULL=0 HALF_FULL=0
# [103000] Transaction: WR=1 DATA=0x0000000c | RD=0 DATA=0x00000000| FULL=0 HF=0 EMPTY=0 HE=0
# [105000] WRITE | DATA: 0x00000034 | STATUS: FULL=0 HALF_FULL=0
# [107000] WRITE | DATA: 0x00000035 | STATUS: FULL=0 HALF_FULL=0
# [109000] WRITE | DATA: 0x00000036 | STATUS: FULL=0 HALF_FULL=0
# [109000] Transaction: WR=1 DATA=0x0000000d | RD=0 DATA=0x00000000| FULL=0 HF=0 EMPTY=0 HE=0
# [111000] WRITE | DATA: 0x00000037 | STATUS: FULL=0 HALF_FULL=0
# [111000] Transaction: WR=1 DATA=0x0000000d | RD=0 DATA=0x00000000| FULL=0 HF=0 EMPTY=0 HE=0
# [113000] WRITE | DATA: 0x00000038 | STATUS: FULL=0 HALF_FULL=0
# [115000] WRITE | DATA: 0x00000039 | STATUS: FULL=0 HALF_FULL=0
# [117000] WRITE | DATA: 0x0000003a | STATUS: FULL=0 HALF_FULL=0
# [117000] Transaction: WR=1 DATA=0x0000000e | RD=0 DATA=0x00000000| FULL=0 HF=0 EMPTY=0 HE=0
# [119000] WRITE | DATA: 0x0000003b | STATUS: FULL=0 HALF_FULL=0
# [119000] Transaction: WR=1 DATA=0x0000000e | RD=0 DATA=0x00000000| FULL=0 HF=0 EMPTY=0 HE=0
# [121000] WRITE | DATA: 0x0000003c | STATUS: FULL=0 HALF_FULL=0
# [123000] WRITE | DATA: 0x0000003d | STATUS: FULL=0 HALF_FULL=0
# [125000] WRITE | DATA: 0x0000003e | STATUS: FULL=0 HALF_FULL=0
# [125000] Transaction: WR=1 DATA=0x0000000f | RD=0 DATA=0x00000000| FULL=0 HF=0 EMPTY=0 HE=0
# [127000] WRITE | DATA: 0x0000003f | STATUS: FULL=0 HALF_FULL=0
# [127000] Transaction: WR=1 DATA=0x0000000f | RD=0 DATA=0x00000000| FULL=0 HF=0 EMPTY=0 HE=0
# [129000] WRITE | DATA: 0x00000040 | STATUS: FULL=0 HALF_FULL=0
# [131000] WRITE | DATA: 0x00000041 | STATUS: FULL=0 HALF_FULL=0
# [133000] WRITE | DATA: 0x00000042 | STATUS: FULL=0 HALF_FULL=0
# [133000] Transaction: WR=1 DATA=0x00000010 | RD=0 DATA=0x00000000| FULL=0 HF=0 EMPTY=0 HE=0
# [135000] WRITE | DATA: 0x00000043 | STATUS: FULL=0 HALF_FULL=0
# [135000] Transaction: WR=1 DATA=0x00000010 | RD=0 DATA=0x00000000| FULL=0 HF=0 EMPTY=0 HE=0
# [137000] WRITE | DATA: 0x00000044 | STATUS: FULL=0 HALF_FULL=0
# [139000] WRITE | DATA: 0x00000045 | STATUS: FULL=0 HALF_FULL=0
# [141000] WRITE | DATA: 0x00000046 | STATUS: FULL=0 HALF_FULL=0
# [141000] Transaction: WR=1 DATA=0x00000011 | RD=0 DATA=0x00000000| FULL=0 HF=0 EMPTY=0 HE=0
# [143000] WRITE | DATA: 0x00000047 | STATUS: FULL=0 HALF_FULL=0
# [143000] Transaction: WR=1 DATA=0x00000011 | RD=0 DATA=0x00000000| FULL=0 HF=0 EMPTY=0 HE=0
# [145000] WRITE | DATA: 0x00000048 | STATUS: FULL=0 HALF_FULL=0
# [147000] WRITE | DATA: 0x00000049 | STATUS: FULL=0 HALF_FULL=0
# [149000] WRITE | DATA: 0x0000004a | STATUS: FULL=0 HALF_FULL=0
# [149000] Transaction: WR=1 DATA=0x00000012 | RD=0 DATA=0x00000000| FULL=0 HF=0 EMPTY=0 HE=0
# [151000] WRITE | DATA: 0x0000004b | STATUS: FULL=0 HALF_FULL=0
# [151000] Transaction: WR=1 DATA=0x00000012 | RD=0 DATA=0x00000000| FULL=0 HF=0 EMPTY=0 HE=0
# [153000] WRITE | DATA: 0x0000004c | STATUS: FULL=0 HALF_FULL=0
# [155000] WRITE | DATA: 0x0000004d | STATUS: FULL=0 HALF_FULL=0
# [157000] WRITE | DATA: 0x0000004e | STATUS: FULL=0 HALF_FULL=0
# [157000] Transaction: WR=1 DATA=0x00000013 | RD=0 DATA=0x00000000| FULL=0 HF=0 EMPTY=0 HE=0
# [159000] WRITE | DATA: 0x0000004f | STATUS: FULL=0 HALF_FULL=0
# [159000] Transaction: WR=1 DATA=0x00000013 | RD=0 DATA=0x00000000| FULL=0 HF=0 EMPTY=0 HE=0
# [161000] WRITE | DATA: 0x00000050 | STATUS: FULL=0 HALF_FULL=0
# [163000] WRITE | DATA: 0x00000051 | STATUS: FULL=0 HALF_FULL=0
# [165000] WRITE | DATA: 0x00000052 | STATUS: FULL=0 HALF_FULL=0
# [165000] Transaction: WR=1 DATA=0x00000014 | RD=0 DATA=0x00000000| FULL=0 HF=0 EMPTY=0 HE=0
# [167000] WRITE | DATA: 0x00000053 | STATUS: FULL=0 HALF_FULL=0
# [167000] Transaction: WR=1 DATA=0x00000014 | RD=0 DATA=0x00000000| FULL=0 HF=0 EMPTY=0 HE=0
# [169000] WRITE | DATA: 0x00000054 | STATUS: FULL=0 HALF_FULL=0
# [171000] WRITE | DATA: 0x00000055 | STATUS: FULL=0 HALF_FULL=0
# [173000] WRITE | DATA: 0x00000056 | STATUS: FULL=0 HALF_FULL=0
# [173000] Transaction: WR=1 DATA=0x00000015 | RD=0 DATA=0x00000000| FULL=0 HF=0 EMPTY=0 HE=0
# [175000] WRITE | DATA: 0x00000057 | STATUS: FULL=0 HALF_FULL=0
# [175000] Transaction: WR=1 DATA=0x00000015 | RD=0 DATA=0x00000000| FULL=0 HF=0 EMPTY=0 HE=0
# [177000] WRITE | DATA: 0x00000058 | STATUS: FULL=0 HALF_FULL=0
# [179000] WRITE | DATA: 0x00000059 | STATUS: FULL=0 HALF_FULL=0
# [181000] WRITE | DATA: 0x0000005a | STATUS: FULL=0 HALF_FULL=0
# [181000] Transaction: WR=1 DATA=0x00000016 | RD=0 DATA=0x00000000| FULL=0 HF=0 EMPTY=0 HE=0
# [183000] WRITE | DATA: 0x0000005b | STATUS: FULL=0 HALF_FULL=0
# [183000] Transaction: WR=1 DATA=0x00000016 | RD=0 DATA=0x00000000| FULL=0 HF=0 EMPTY=0 HE=0
# [185000] WRITE | DATA: 0x0000005c | STATUS: FULL=0 HALF_FULL=0
# [187000] WRITE | DATA: 0x0000005d | STATUS: FULL=0 HALF_FULL=0
# [189000] WRITE | DATA: 0x0000005e | STATUS: FULL=0 HALF_FULL=0
# [189000] Transaction: WR=1 DATA=0x00000017 | RD=0 DATA=0x00000000| FULL=0 HF=0 EMPTY=0 HE=0
# [191000] WRITE | DATA: 0x0000005f | STATUS: FULL=0 HALF_FULL=0
# [191000] Transaction: WR=1 DATA=0x00000017 | RD=0 DATA=0x00000000| FULL=0 HF=0 EMPTY=0 HE=0
# [193000] WRITE | DATA: 0x00000060 | STATUS: FULL=0 HALF_FULL=0
# [195000] WRITE | DATA: 0x00000061 | STATUS: FULL=0 HALF_FULL=0
# [197000] WRITE | DATA: 0x00000062 | STATUS: FULL=0 HALF_FULL=0
# [197000] Transaction: WR=1 DATA=0x00000018 | RD=0 DATA=0x00000000| FULL=0 HF=0 EMPTY=0 HE=0
# [199000] WRITE | DATA: 0x00000063 | STATUS: FULL=0 HALF_FULL=0
# [199000] Transaction: WR=1 DATA=0x00000018 | RD=0 DATA=0x00000000| FULL=0 HF=0 EMPTY=0 HE=0
# [201000] WRITE | DATA: 0x00000064 | STATUS: FULL=0 HALF_FULL=0
# [203000] WRITE | DATA: 0x00000065 | STATUS: FULL=0 HALF_FULL=0
# [205000] WRITE | DATA: 0x00000066 | STATUS: FULL=0 HALF_FULL=0
# [205000] Transaction: WR=1 DATA=0x00000019 | RD=0 DATA=0x00000000| FULL=0 HF=0 EMPTY=0 HE=0
# [207000] WRITE | DATA: 0x00000067 | STATUS: FULL=0 HALF_FULL=0
# [207000] Transaction: WR=1 DATA=0x00000019 | RD=0 DATA=0x00000000| FULL=0 HF=0 EMPTY=0 HE=0
# [209000] WRITE | DATA: 0x00000068 | STATUS: FULL=0 HALF_FULL=0
# [211000] WRITE | DATA: 0x00000069 | STATUS: FULL=0 HALF_FULL=0
# [213000] WRITE | DATA: 0x0000006a | STATUS: FULL=0 HALF_FULL=0
# [213000] Transaction: WR=1 DATA=0x0000001a | RD=0 DATA=0x00000000| FULL=0 HF=0 EMPTY=0 HE=0
# [215000] WRITE | DATA: 0x0000006b | STATUS: FULL=0 HALF_FULL=0
# [215000] Transaction: WR=1 DATA=0x0000001a | RD=0 DATA=0x00000000| FULL=0 HF=0 EMPTY=0 HE=0
# [217000] WRITE | DATA: 0x0000006c | STATUS: FULL=0 HALF_FULL=0
# [219000] WRITE | DATA: 0x0000006d | STATUS: FULL=0 HALF_FULL=0
# [221000] WRITE | DATA: 0x0000006e | STATUS: FULL=0 HALF_FULL=0
# [221000] Transaction: WR=1 DATA=0x0000001b | RD=0 DATA=0x00000000| FULL=0 HF=0 EMPTY=0 HE=0
# [223000] WRITE | DATA: 0x0000006f | STATUS: FULL=0 HALF_FULL=0
# [223000] Transaction: WR=1 DATA=0x0000001b | RD=0 DATA=0x00000000| FULL=0 HF=0 EMPTY=0 HE=0
# [225000] WRITE | DATA: 0x00000070 | STATUS: FULL=0 HALF_FULL=0
# [227000] WRITE | DATA: 0x00000071 | STATUS: FULL=0 HALF_FULL=0
# [229000] WRITE | DATA: 0x00000072 | STATUS: FULL=0 HALF_FULL=0
# [229000] Transaction: WR=1 DATA=0x0000001c | RD=0 DATA=0x00000000| FULL=0 HF=0 EMPTY=0 HE=0
# [231000] WRITE | DATA: 0x00000073 | STATUS: FULL=0 HALF_FULL=0
# [231000] Transaction: WR=1 DATA=0x0000001c | RD=0 DATA=0x00000000| FULL=0 HF=0 EMPTY=0 HE=0
# [233000] WRITE | DATA: 0x00000074 | STATUS: FULL=0 HALF_FULL=0
# [235000] WRITE | DATA: 0x00000075 | STATUS: FULL=0 HALF_FULL=0
# [237000] WRITE | DATA: 0x00000076 | STATUS: FULL=0 HALF_FULL=0
# [237000] Transaction: WR=1 DATA=0x0000001d | RD=0 DATA=0x00000000| FULL=0 HF=0 EMPTY=0 HE=0
# [239000] WRITE | DATA: 0x00000077 | STATUS: FULL=0 HALF_FULL=0
# [239000] Transaction: WR=1 DATA=0x0000001d | RD=0 DATA=0x00000000| FULL=0 HF=0 EMPTY=0 HE=0
# [241000] WRITE | DATA: 0x00000078 | STATUS: FULL=0 HALF_FULL=0
# [243000] WRITE | DATA: 0x00000079 | STATUS: FULL=0 HALF_FULL=0
# [245000] WRITE | DATA: 0x0000007a | STATUS: FULL=0 HALF_FULL=0
# [245000] Transaction: WR=1 DATA=0x0000001e | RD=0 DATA=0x00000000| FULL=0 HF=0 EMPTY=0 HE=0
# [247000] WRITE | DATA: 0x0000007b | STATUS: FULL=0 HALF_FULL=0
# [247000] Transaction: WR=1 DATA=0x0000001e | RD=0 DATA=0x00000000| FULL=0 HF=0 EMPTY=0 HE=0
# [249000] WRITE | DATA: 0x0000007c | STATUS: FULL=0 HALF_FULL=0
# [251000] WRITE | DATA: 0x0000007d | STATUS: FULL=0 HALF_FULL=0
# [253000] WRITE | DATA: 0x0000007e | STATUS: FULL=0 HALF_FULL=0
# [253000] Transaction: WR=1 DATA=0x0000001f | RD=0 DATA=0x00000000| FULL=0 HF=0 EMPTY=0 HE=0
# [255000] WRITE | DATA: 0x0000007f | STATUS: FULL=0 HALF_FULL=0
# [255000] Transaction: WR=1 DATA=0x0000001f | RD=0 DATA=0x00000000| FULL=0 HF=0 EMPTY=0 HE=0
# [257000] WRITE | DATA: 0x00000080 | STATUS: FULL=0 HALF_FULL=0
# [259000] WRITE | DATA: 0x00000081 | STATUS: FULL=0 HALF_FULL=0
# [261000] WRITE | DATA: 0x00000082 | STATUS: FULL=0 HALF_FULL=0
# [261000] Transaction: WR=1 DATA=0x00000020 | RD=0 DATA=0x00000000| FULL=0 HF=0 EMPTY=0 HE=0
# [263000] WRITE | DATA: 0x00000083 | STATUS: FULL=0 HALF_FULL=0
# [263000] Transaction: WR=1 DATA=0x00000020 | RD=0 DATA=0x00000000| FULL=0 HF=0 EMPTY=0 HE=0
# [265000] WRITE | DATA: 0x00000084 | STATUS: FULL=0 HALF_FULL=0
# [267000] WRITE | DATA: 0x00000085 | STATUS: FULL=0 HALF_FULL=0
# [269000] WRITE | DATA: 0x00000086 | STATUS: FULL=0 HALF_FULL=0
# [269000] Transaction: WR=1 DATA=0x00000021 | RD=0 DATA=0x00000000| FULL=0 HF=0 EMPTY=0 HE=0
# [271000] WRITE | DATA: 0x00000087 | STATUS: FULL=0 HALF_FULL=0
# [271000] Transaction: WR=1 DATA=0x00000021 | RD=0 DATA=0x00000000| FULL=0 HF=0 EMPTY=0 HE=0
# [273000] WRITE | DATA: 0x00000088 | STATUS: FULL=0 HALF_FULL=0
# [275000] WRITE | DATA: 0x00000089 | STATUS: FULL=0 HALF_FULL=0
# [277000] WRITE | DATA: 0x0000008a | STATUS: FULL=0 HALF_FULL=0
# [277000] Transaction: WR=1 DATA=0x00000022 | RD=0 DATA=0x00000000| FULL=0 HF=0 EMPTY=0 HE=0
# [279000] WRITE | DATA: 0x0000008b | STATUS: FULL=0 HALF_FULL=0
# [279000] Transaction: WR=1 DATA=0x00000022 | RD=0 DATA=0x00000000| FULL=0 HF=0 EMPTY=0 HE=0
# [281000] WRITE | DATA: 0x0000008c | STATUS: FULL=0 HALF_FULL=0
# [283000] WRITE | DATA: 0x0000008d | STATUS: FULL=0 HALF_FULL=0
# [285000] WRITE | DATA: 0x0000008e | STATUS: FULL=0 HALF_FULL=0
# [285000] Transaction: WR=1 DATA=0x00000023 | RD=0 DATA=0x00000000| FULL=0 HF=0 EMPTY=0 HE=0
# [287000] WRITE | DATA: 0x0000008f | STATUS: FULL=0 HALF_FULL=0
# [287000] Transaction: WR=1 DATA=0x00000023 | RD=0 DATA=0x00000000| FULL=0 HF=0 EMPTY=0 HE=0
# [289000] WRITE | DATA: 0x00000090 | STATUS: FULL=0 HALF_FULL=0
# [291000] WRITE | DATA: 0x00000091 | STATUS: FULL=0 HALF_FULL=0
# [293000] WRITE | DATA: 0x00000092 | STATUS: FULL=0 HALF_FULL=0
# [293000] Transaction: WR=1 DATA=0x00000024 | RD=0 DATA=0x00000000| FULL=0 HF=0 EMPTY=0 HE=0
# [295000] WRITE | DATA: 0x00000093 | STATUS: FULL=0 HALF_FULL=0
# [295000] Transaction: WR=1 DATA=0x00000024 | RD=0 DATA=0x00000000| FULL=0 HF=0 EMPTY=0 HE=0
# [297000] WRITE | DATA: 0x00000094 | STATUS: FULL=0 HALF_FULL=0
# [299000] WRITE | DATA: 0x00000095 | STATUS: FULL=0 HALF_FULL=0
# [301000] WRITE | DATA: 0x00000096 | STATUS: FULL=0 HALF_FULL=0
# [301000] Transaction: WR=1 DATA=0x00000025 | RD=0 DATA=0x00000000| FULL=0 HF=0 EMPTY=0 HE=0
# [303000] WRITE | DATA: 0x00000097 | STATUS: FULL=0 HALF_FULL=0
# [303000] Transaction: WR=1 DATA=0x00000025 | RD=0 DATA=0x00000000| FULL=0 HF=0 EMPTY=0 HE=0
# [305000] WRITE | DATA: 0x00000098 | STATUS: FULL=0 HALF_FULL=0
# [307000] WRITE | DATA: 0x00000099 | STATUS: FULL=0 HALF_FULL=0
# [309000] WRITE | DATA: 0x0000009a | STATUS: FULL=0 HALF_FULL=0
# [309000] Transaction: WR=1 DATA=0x00000026 | RD=0 DATA=0x00000000| FULL=0 HF=0 EMPTY=0 HE=0
# [311000] WRITE | DATA: 0x0000009b | STATUS: FULL=0 HALF_FULL=0
# [311000] Transaction: WR=1 DATA=0x00000026 | RD=0 DATA=0x00000000| FULL=0 HF=0 EMPTY=0 HE=0
# [313000] WRITE | DATA: 0x0000009c | STATUS: FULL=0 HALF_FULL=0
# [315000] WRITE | DATA: 0x0000009d | STATUS: FULL=0 HALF_FULL=0
# [317000] WRITE | DATA: 0x0000009e | STATUS: FULL=0 HALF_FULL=0
# [317000] Transaction: WR=1 DATA=0x00000027 | RD=0 DATA=0x00000000| FULL=0 HF=0 EMPTY=0 HE=0
# [319000] WRITE | DATA: 0x0000009f | STATUS: FULL=0 HALF_FULL=0
# [319000] Transaction: WR=1 DATA=0x00000027 | RD=0 DATA=0x00000000| FULL=0 HF=0 EMPTY=0 HE=0
# [321000] WRITE | DATA: 0x000000a0 | STATUS: FULL=0 HALF_FULL=0
# [323000] WRITE | DATA: 0x000000a1 | STATUS: FULL=0 HALF_FULL=0
# [325000] WRITE | DATA: 0x000000a2 | STATUS: FULL=0 HALF_FULL=0
# [325000] Transaction: WR=1 DATA=0x00000028 | RD=0 DATA=0x00000000| FULL=0 HF=0 EMPTY=0 HE=0
# [327000] WRITE | DATA: 0x000000a3 | STATUS: FULL=0 HALF_FULL=0
# [327000] Transaction: WR=1 DATA=0x00000028 | RD=0 DATA=0x00000000| FULL=0 HF=0 EMPTY=0 HE=0
# [329000] WRITE | DATA: 0x000000a4 | STATUS: FULL=0 HALF_FULL=0
# [331000] WRITE | DATA: 0x000000a5 | STATUS: FULL=0 HALF_FULL=0
# [333000] WRITE | DATA: 0x000000a6 | STATUS: FULL=0 HALF_FULL=0
# [333000] Transaction: WR=1 DATA=0x00000029 | RD=0 DATA=0x00000000| FULL=0 HF=0 EMPTY=0 HE=0
# [335000] WRITE | DATA: 0x000000a7 | STATUS: FULL=0 HALF_FULL=0
# [335000] Transaction: WR=1 DATA=0x00000029 | RD=0 DATA=0x00000000| FULL=0 HF=0 EMPTY=0 HE=0
# [337000] WRITE | DATA: 0x000000a8 | STATUS: FULL=0 HALF_FULL=0
# [339000] WRITE | DATA: 0x000000a9 | STATUS: FULL=0 HALF_FULL=0
# [341000] WRITE | DATA: 0x000000aa | STATUS: FULL=0 HALF_FULL=0
# [341000] Transaction: WR=1 DATA=0x0000002a | RD=0 DATA=0x00000000| FULL=0 HF=0 EMPTY=0 HE=0
# [343000] WRITE | DATA: 0x000000ab | STATUS: FULL=0 HALF_FULL=0
# [343000] Transaction: WR=1 DATA=0x0000002a | RD=0 DATA=0x00000000| FULL=0 HF=0 EMPTY=0 HE=0
# [345000] WRITE | DATA: 0x000000ac | STATUS: FULL=0 HALF_FULL=0
# [347000] WRITE | DATA: 0x000000ad | STATUS: FULL=0 HALF_FULL=0
# [349000] WRITE | DATA: 0x000000ae | STATUS: FULL=0 HALF_FULL=0
# [349000] Transaction: WR=1 DATA=0x0000002b | RD=0 DATA=0x00000000| FULL=0 HF=0 EMPTY=0 HE=0
# [351000] WRITE | DATA: 0x000000af | STATUS: FULL=0 HALF_FULL=0
# [351000] Transaction: WR=1 DATA=0x0000002b | RD=0 DATA=0x00000000| FULL=0 HF=0 EMPTY=0 HE=0
# [353000] WRITE | DATA: 0x000000b0 | STATUS: FULL=0 HALF_FULL=0
# [355000] WRITE | DATA: 0x000000b1 | STATUS: FULL=0 HALF_FULL=0
# [357000] WRITE | DATA: 0x000000b2 | STATUS: FULL=0 HALF_FULL=0
# [357000] Transaction: WR=1 DATA=0x0000002c | RD=0 DATA=0x00000000| FULL=0 HF=0 EMPTY=0 HE=0
# [359000] WRITE | DATA: 0x000000b3 | STATUS: FULL=0 HALF_FULL=0
# [359000] Transaction: WR=1 DATA=0x0000002c | RD=0 DATA=0x00000000| FULL=0 HF=0 EMPTY=0 HE=0
# [361000] WRITE | DATA: 0x000000b4 | STATUS: FULL=0 HALF_FULL=0
# [363000] WRITE | DATA: 0x000000b5 | STATUS: FULL=0 HALF_FULL=0
# [365000] WRITE | DATA: 0x000000b6 | STATUS: FULL=0 HALF_FULL=0
# [365000] Transaction: WR=1 DATA=0x0000002d | RD=0 DATA=0x00000000| FULL=0 HF=0 EMPTY=0 HE=0
# [367000] WRITE | DATA: 0x000000b7 | STATUS: FULL=0 HALF_FULL=0
# [367000] Transaction: WR=1 DATA=0x0000002d | RD=0 DATA=0x00000000| FULL=0 HF=0 EMPTY=0 HE=0
# [369000] WRITE | DATA: 0x000000b8 | STATUS: FULL=0 HALF_FULL=0
# [371000] WRITE | DATA: 0x000000b9 | STATUS: FULL=0 HALF_FULL=0
# [373000] WRITE | DATA: 0x000000ba | STATUS: FULL=0 HALF_FULL=0
# [373000] Transaction: WR=1 DATA=0x0000002e | RD=0 DATA=0x00000000| FULL=0 HF=0 EMPTY=0 HE=0
# [375000] WRITE | DATA: 0x000000bb | STATUS: FULL=0 HALF_FULL=0
# [375000] Transaction: WR=1 DATA=0x0000002e | RD=0 DATA=0x00000000| FULL=0 HF=0 EMPTY=0 HE=0
# [377000] WRITE | DATA: 0x000000bc | STATUS: FULL=0 HALF_FULL=0
