M3/Class/transcript.txt
# //  Questa Sim-64
# //  Version 2021.3_1 linux_x86_64 Aug 15 2021
# //
# //  Copyright 1991-2021 Mentor Graphics Corporation
# //  All Rights Reserved.
# //
# //  QuestaSim and its associated documentation contain trade
# //  secrets and commercial or financial information that are the property of
# //  Mentor Graphics Corporation and are privileged, confidential,
# //  and exempt from disclosure under the Freedom of Information Act,
# //  5 U.S.C. Section 552. Furthermore, this information
# //  is prohibited from disclosure under the Trade Secrets Act,
# //  18 U.S.C. Section 1905.
# //
# do run.do
# ** Warning: (vlib-34) Library already exists at "work".
# Errors: 0, Warnings: 1
# QuestaSim-64 vlog 2021.3_1 Compiler 2021.08 Aug 15 2021
# Start time: 10:38:39 on May 22,2025
# vlog -reportprogress 300 -sv -cover bcefsx "+acc" "+define+QUESTA" "+fcover" async_fifo.sv coverage_pkg.sv driver.sv environment.sv generator.sv interface.sv monitor_in.sv monitor_out.sv scoreboard.sv tb_pkg.sv test.sv top.sv 
# -- Compiling module async_fifo
# -- Compiling package coverage_pkg
# -- Importing package tb_pkg
# -- Compiling package tb_pkg
# ** Warning: driver.sv(16): (vlog-13233) Design unit "driver_sv_unit" already exists and will be overwritten. Overwriting SystemVerilog $unit with different source files.
# -- Compiling package driver_sv_unit
# -- Compiling package tb_pkg
# ** Warning: ** while parsing file included at environment.sv(14)
# ** at /home/pandhare/common/Desktop/class_based_testbench/tb_pkg.sv(14): (vlog-2275) Existing package 'tb_pkg' at line 14 will be overwritten.
# -- Compiling package coverage_pkg
# ** Warning: ** while parsing file included at environment.sv(15)
# ** at coverage_pkg.sv(14): (vlog-2275) Existing package 'coverage_pkg' at line 14 will be overwritten.
# ** Warning: generator.sv(16): (vlog-13233) Design unit "environment_sv_unit" already exists and will be overwritten. Overwriting SystemVerilog $unit with different source files.
# -- Compiling package environment_sv_unit
# -- Importing package coverage_pkg
# -- Compiling package tb_pkg
# ** Warning: ** while parsing file included at generator.sv(14)
# ** at /home/pandhare/common/Desktop/class_based_testbench/tb_pkg.sv(14): (vlog-2275) Existing package 'tb_pkg' at line 14 will be overwritten.
# ** Warning: generator.sv(16): (vlog-13233) Design unit "generator_sv_unit" already exists and will be overwritten. Overwriting SystemVerilog $unit with different source files.
# -- Compiling package generator_sv_unit
# -- Compiling package tb_pkg
# ** Warning: ** while parsing file included at interface.sv(11)
# ** at /home/pandhare/common/Desktop/class_based_testbench/tb_pkg.sv(14): (vlog-2275) Existing package 'tb_pkg' at line 14 will be overwritten.
# -- Compiling interface intf
# -- Compiling package tb_pkg
# ** Warning: ** while parsing file included at monitor_in.sv(14)
# ** at /home/pandhare/common/Desktop/class_based_testbench/tb_pkg.sv(14): (vlog-2275) Existing package 'tb_pkg' at line 14 will be overwritten.
# -- Compiling package coverage_pkg
# ** Warning: ** while parsing file included at monitor_in.sv(15)
# ** at coverage_pkg.sv(14): (vlog-2275) Existing package 'coverage_pkg' at line 14 will be overwritten.
# ** Warning: monitor_in.sv(17): (vlog-13233) Design unit "monitor_in_sv_unit" already exists and will be overwritten. Overwriting SystemVerilog $unit with different source files.
# -- Compiling package monitor_in_sv_unit
# -- Compiling package tb_pkg
# ** Warning: ** while parsing file included at monitor_out.sv(11)
# ** at /home/pandhare/common/Desktop/class_based_testbench/tb_pkg.sv(14): (vlog-2275) Existing package 'tb_pkg' at line 14 will be overwritten.
# -- Compiling package coverage_pkg
# ** Warning: ** while parsing file included at monitor_out.sv(12)
# ** at coverage_pkg.sv(14): (vlog-2275) Existing package 'coverage_pkg' at line 14 will be overwritten.
# ** Warning: monitor_out.sv(14): (vlog-13233) Design unit "monitor_out_sv_unit" already exists and will be overwritten. Overwriting SystemVerilog $unit with different source files.
# -- Compiling package monitor_out_sv_unit
# -- Compiling package tb_pkg
# ** Warning: ** while parsing file included at scoreboard.sv(14)
# ** at /home/pandhare/common/Desktop/class_based_testbench/tb_pkg.sv(14): (vlog-2275) Existing package 'tb_pkg' at line 14 will be overwritten.
# ** Warning: scoreboard.sv(16): (vlog-13233) Design unit "scoreboard_sv_unit" already exists and will be overwritten. Overwriting SystemVerilog $unit with different source files.
# -- Compiling package scoreboard_sv_unit
# -- Compiling package tb_pkg
# ** Warning: /home/pandhare/common/Desktop/class_based_testbench/tb_pkg.sv(14): (vlog-2275) Existing package 'tb_pkg' at line 14 will be overwritten.
# -- Compiling package tb_pkg
# ** Warning: ** while parsing file included at test.sv(12)
# ** while parsing file included at environment.sv(14)
# ** at /home/pandhare/common/Desktop/class_based_testbench/tb_pkg.sv(14): (vlog-2275) Existing package 'tb_pkg' at line 14 will be overwritten.
# -- Compiling package coverage_pkg
# ** Warning: ** while parsing file included at test.sv(12)
# ** while parsing file included at environment.sv(15)
# ** at coverage_pkg.sv(14): (vlog-2275) Existing package 'coverage_pkg' at line 14 will be overwritten.
# ** Warning: generator.sv(16): (vlog-13233) Design unit "test_sv_unit" already exists and will be overwritten. Overwriting SystemVerilog $unit with different source files.
# -- Compiling package test_sv_unit
# -- Compiling package tb_pkg
# ** Warning: ** while parsing file included at top.sv(3)
# ** while parsing file included at interface.sv(11)
# ** at /home/pandhare/common/Desktop/class_based_testbench/tb_pkg.sv(14): (vlog-2275) Existing package 'tb_pkg' at line 14 will be overwritten.
# -- Compiling interface intf
# ** Warning: ** while parsing file included at top.sv(3)
# ** at interface.sv(13): (vlog-2275) Existing interface 'intf' at line 13 will be overwritten.
# -- Compiling module async_fifo
# ** Warning: ** while parsing file included at top.sv(4)
# ** at async_fifo.sv(29): (vlog-2275) Existing module 'async_fifo' at line 29 will be overwritten.
# -- Compiling package coverage_pkg
# ** Warning: ** while parsing file included at top.sv(5)
# ** while parsing file included at test.sv(12)
# ** while parsing file included at environment.sv(15)
# ** at coverage_pkg.sv(14): (vlog-2275) Existing package 'coverage_pkg' at line 14 will be overwritten.
# ** Warning: generator.sv(16): (vlog-13233) Design unit "top_sv_unit" already exists and will be overwritten. Overwriting SystemVerilog $unit with different source files.
# -- Compiling package top_sv_unit
# -- Compiling module testbench_top
# 
# Top level modules:
# 	testbench_top
# End time: 10:38:40 on May 22,2025, Elapsed time: 0:00:01
# Errors: 0, Warnings: 24
# vsim -coverage work.testbench_top 
# Start time: 10:38:40 on May 22,2025
# ** Note: (vsim-3812) Design is being optimized...
# Loading sv_std.std
# Loading work.intf(fast)
# Loading work.tb_pkg(fast)
# Loading work.coverage_pkg(fast)
# Loading work.top_sv_unit(fast)
# Loading work.testbench_top(fast)
# Loading work.intf(fast__2)
# Loading work.async_fifo(fast)
run -all
# 
# === ENV: Starting all components ===
# [1000] Driver started
# [1000] MON_IN: Started
# [1000] MON_OUT: Started
# [1000] SCOREBOARD: Started
# 
# === GEN: Fill to full ===
# [5000] WRITE : DATA=0x00000000 | FULL=0 HF=0
# [9000] WRITE : DATA=0x00000001 | FULL=0 HF=0
# [13000] WRITE : DATA=0x00000002 | FULL=0 HF=0
# [17000] WRITE : DATA=0x00000003 | FULL=0 HF=0
# [21000] WRITE : DATA=0x00000004 | FULL=0 HF=0
# [25000] WRITE : DATA=0x00000005 | FULL=0 HF=0
# [29000] WRITE : DATA=0x00000006 | FULL=0 HF=0
# [33000] WRITE : DATA=0x00000007 | FULL=0 HF=0
# [37000] WRITE : DATA=0x00000008 | FULL=0 HF=0
# [41000] WRITE : DATA=0x00000009 | FULL=0 HF=0
# [45000] WRITE : DATA=0x0000000a | FULL=0 HF=0
# [49000] WRITE : DATA=0x0000000b | FULL=0 HF=0
# [53000] WRITE : DATA=0x0000000c | FULL=0 HF=0
# [57000] WRITE : DATA=0x0000000d | FULL=0 HF=0
# [61000] WRITE : DATA=0x0000000e | FULL=0 HF=0
# [65000] WRITE : DATA=0x0000000f | FULL=0 HF=0
# [69000] WRITE : DATA=0x00000010 | FULL=0 HF=0
# [73000] WRITE : DATA=0x00000011 | FULL=0 HF=0
# [77000] WRITE : DATA=0x00000012 | FULL=0 HF=0
# [81000] WRITE : DATA=0x00000013 | FULL=0 HF=0
# [85000] WRITE : DATA=0x00000014 | FULL=0 HF=0
# [89000] WRITE : DATA=0x00000015 | FULL=0 HF=0
# [93000] WRITE : DATA=0x00000016 | FULL=0 HF=0
# [97000] WRITE : DATA=0x00000017 | FULL=0 HF=0
# [101000] WRITE : DATA=0x00000018 | FULL=0 HF=0
# [105000] WRITE : DATA=0x00000019 | FULL=0 HF=0
# [109000] WRITE : DATA=0x0000001a | FULL=0 HF=0
# [113000] WRITE : DATA=0x0000001b | FULL=0 HF=0
# [117000] WRITE : DATA=0x0000001c | FULL=0 HF=0
# [121000] WRITE : DATA=0x0000001d | FULL=0 HF=0
# [125000] WRITE : DATA=0x0000001e | FULL=0 HF=0
# [129000] WRITE : DATA=0x0000001f | FULL=0 HF=0
# [133000] WRITE : DATA=0x00000020 | FULL=0 HF=0
# [137000] WRITE : DATA=0x00000021 | FULL=0 HF=0
# [141000] WRITE : DATA=0x00000022 | FULL=0 HF=0
# [145000] WRITE : DATA=0x00000023 | FULL=0 HF=0
# [149000] WRITE : DATA=0x00000024 | FULL=0 HF=0
# [153000] WRITE : DATA=0x00000025 | FULL=0 HF=0
# [157000] WRITE : DATA=0x00000026 | FULL=0 HF=0
# [161000] WRITE : DATA=0x00000027 | FULL=0 HF=0
# [165000] WRITE : DATA=0x00000028 | FULL=0 HF=0
# [169000] WRITE : DATA=0x00000029 | FULL=0 HF=0
# [173000] WRITE : DATA=0x0000002a | FULL=0 HF=0
# [177000] WRITE : DATA=0x0000002b | FULL=0 HF=0
# [181000] WRITE : DATA=0x0000002c | FULL=0 HF=0
# [185000] WRITE : DATA=0x0000002d | FULL=0 HF=0
# [189000] WRITE : DATA=0x0000002e | FULL=0 HF=0
# [193000] WRITE : DATA=0x0000002f | FULL=0 HF=0
# [197000] WRITE : DATA=0x00000030 | FULL=0 HF=0
# [201000] WRITE : DATA=0x00000031 | FULL=0 HF=0
# [205000] WRITE : DATA=0x00000032 | FULL=0 HF=0
# [209000] WRITE : DATA=0x00000033 | FULL=0 HF=0
# [213000] WRITE : DATA=0x00000034 | FULL=0 HF=0
# [217000] WRITE : DATA=0x00000035 | FULL=0 HF=0
# [221000] WRITE : DATA=0x00000036 | FULL=0 HF=0
# [225000] WRITE : DATA=0x00000037 | FULL=0 HF=0
# [229000] WRITE : DATA=0x00000038 | FULL=0 HF=0
# [233000] WRITE : DATA=0x00000039 | FULL=0 HF=0
# [237000] WRITE : DATA=0x0000003a | FULL=0 HF=0
# [241000] WRITE : DATA=0x0000003b | FULL=0 HF=0
# [245000] WRITE : DATA=0x0000003c | FULL=0 HF=0
# [249000] WRITE : DATA=0x0000003d | FULL=0 HF=0
# [253000] WRITE : DATA=0x0000003e | FULL=0 HF=0
# [257000] WRITE : DATA=0x0000003f | FULL=0 HF=0
# [261000] WRITE : DATA=0x00000040 | FULL=0 HF=0
# [265000] WRITE : DATA=0x00000041 | FULL=0 HF=0
# [269000] WRITE : DATA=0x00000042 | FULL=0 HF=0
# [273000] WRITE : DATA=0x00000043 | FULL=0 HF=0
# [277000] WRITE : DATA=0x00000044 | FULL=0 HF=0
# [281000] WRITE : DATA=0x00000045 | FULL=0 HF=0
# [285000] WRITE : DATA=0x00000046 | FULL=0 HF=0
# [289000] WRITE : DATA=0x00000047 | FULL=0 HF=0
# [293000] WRITE : DATA=0x00000048 | FULL=0 HF=0
# [297000] WRITE : DATA=0x00000049 | FULL=0 HF=0
# [301000] WRITE : DATA=0x0000004a | FULL=0 HF=0
# [305000] WRITE : DATA=0x0000004b | FULL=0 HF=0
# [309000] WRITE : DATA=0x0000004c | FULL=0 HF=0
# [313000] WRITE : DATA=0x0000004d | FULL=0 HF=0
# [317000] WRITE : DATA=0x0000004e | FULL=0 HF=0
# [321000] WRITE : DATA=0x0000004f | FULL=0 HF=0
# [325000] WRITE : DATA=0x00000050 | FULL=0 HF=0
# [329000] WRITE : DATA=0x00000051 | FULL=0 HF=0
# [333000] WRITE : DATA=0x00000052 | FULL=0 HF=0
# [337000] WRITE : DATA=0x00000053 | FULL=0 HF=0
# [341000] WRITE : DATA=0x00000054 | FULL=0 HF=0
# [345000] WRITE : DATA=0x00000055 | FULL=0 HF=0
# [349000] WRITE : DATA=0x00000056 | FULL=0 HF=0
# [353000] WRITE : DATA=0x00000057 | FULL=0 HF=0
# [357000] WRITE : DATA=0x00000058 | FULL=0 HF=0
# [361000] WRITE : DATA=0x00000059 | FULL=0 HF=0
# [365000] WRITE : DATA=0x0000005a | FULL=0 HF=0
# [369000] WRITE : DATA=0x0000005b | FULL=0 HF=0
# [373000] WRITE : DATA=0x0000005c | FULL=0 HF=0
# [377000] WRITE : DATA=0x0000005d | FULL=0 HF=0
# [381000] WRITE : DATA=0x0000005e | FULL=0 HF=0
# [385000] WRITE : DATA=0x0000005f | FULL=0 HF=0
# [389000] WRITE : DATA=0x00000060 | FULL=0 HF=0
# [393000] WRITE : DATA=0x00000061 | FULL=0 HF=0
# [397000] WRITE : DATA=0x00000062 | FULL=0 HF=0
# [401000] WRITE : DATA=0x00000063 | FULL=0 HF=0
# [405000] WRITE : DATA=0x00000064 | FULL=0 HF=0
# [409000] WRITE : DATA=0x00000065 | FULL=0 HF=0
# [413000] WRITE : DATA=0x00000066 | FULL=0 HF=0
# [417000] WRITE : DATA=0x00000067 | FULL=0 HF=0
# [421000] WRITE : DATA=0x00000068 | FULL=0 HF=0
# [425000] WRITE : DATA=0x00000069 | FULL=0 HF=0
# [429000] WRITE : DATA=0x0000006a | FULL=0 HF=0
# [433000] WRITE : DATA=0x0000006b | FULL=0 HF=0
# [437000] WRITE : DATA=0x0000006c | FULL=0 HF=0
# [441000] WRITE : DATA=0x0000006d | FULL=0 HF=0
# [445000] WRITE : DATA=0x0000006e | FULL=0 HF=0
# [449000] WRITE : DATA=0x0000006f | FULL=0 HF=0
# [453000] WRITE : DATA=0x00000070 | FULL=0 HF=0
# [457000] WRITE : DATA=0x00000071 | FULL=0 HF=0
# [461000] WRITE : DATA=0x00000072 | FULL=0 HF=0
# [465000] WRITE : DATA=0x00000073 | FULL=0 HF=0
# [469000] WRITE : DATA=0x00000074 | FULL=0 HF=0
# [473000] WRITE : DATA=0x00000075 | FULL=0 HF=0
# [477000] WRITE : DATA=0x00000076 | FULL=0 HF=0
# [481000] WRITE : DATA=0x00000077 | FULL=0 HF=0
# [485000] WRITE : DATA=0x00000078 | FULL=0 HF=0
# [489000] WRITE : DATA=0x00000079 | FULL=0 HF=0
# [493000] WRITE : DATA=0x0000007a | FULL=0 HF=0
# [497000] WRITE : DATA=0x0000007b | FULL=0 HF=0
# [501000] WRITE : DATA=0x0000007c | FULL=0 HF=0
# [505000] WRITE : DATA=0x0000007d | FULL=0 HF=0
# [509000] WRITE : DATA=0x0000007e | FULL=0 HF=0
# [513000] WRITE : DATA=0x0000007f | FULL=0 HF=0
# === GEN: FIFO is FULL at 517000 ===
# 
# === GEN: Overflow test ===
# [517000] WRITE : DATA=0x00000080 | FULL=0 HF=0
# [521000] WRITE : DATA=0x00000081 | FULL=0 HF=1
# [525000] WRITE : DATA=0x00000082 | FULL=0 HF=1
# 
# === GEN: Drain to empty ===
# [529000] WRITE : DATA=0x00000083 | FULL=0 HF=1
# [533000] WRITE : DATA=0x00000084 | FULL=0 HF=1
# [537000] WRITE : DATA=0x00000085 | FULL=0 HF=1
# [541000] WRITE : DATA=0x00000086 | FULL=0 HF=1
# [545000] WRITE : DATA=0x00000087 | FULL=0 HF=1
# [549000] WRITE : DATA=0x00000088 | FULL=0 HF=1
# [553000] WRITE : DATA=0x00000089 | FULL=0 HF=1
# [557000] WRITE : DATA=0x0000008a | FULL=0 HF=1
# [561000] WRITE : DATA=0x0000008b | FULL=0 HF=1
# [565000] WRITE : DATA=0x0000008c | FULL=0 HF=1
# [569000] WRITE : DATA=0x0000008d | FULL=0 HF=1
# [573000] WRITE : DATA=0x0000008e | FULL=0 HF=1
# [577000] WRITE : DATA=0x0000008f | FULL=0 HF=1
# [581000] WRITE : DATA=0x00000090 | FULL=0 HF=1
# [585000] WRITE : DATA=0x00000091 | FULL=0 HF=1
# [589000] WRITE : DATA=0x00000092 | FULL=0 HF=1
# [593000] WRITE : DATA=0x00000093 | FULL=0 HF=1
# [597000] WRITE : DATA=0x00000094 | FULL=0 HF=1
# [601000] WRITE : DATA=0x00000095 | FULL=0 HF=1
# [605000] WRITE : DATA=0x00000096 | FULL=0 HF=1
# [609000] WRITE : DATA=0x00000097 | FULL=0 HF=1
# [613000] WRITE : DATA=0x00000098 | FULL=0 HF=1
# [617000] WRITE : DATA=0x00000099 | FULL=0 HF=1
# [621000] WRITE : DATA=0x0000009a | FULL=0 HF=1
# [625000] WRITE : DATA=0x0000009b | FULL=0 HF=1
# [629000] WRITE : DATA=0x0000009c | FULL=0 HF=1
# [633000] WRITE : DATA=0x0000009d | FULL=0 HF=1
# [637000] WRITE : DATA=0x0000009e | FULL=0 HF=1
# [641000] WRITE : DATA=0x0000009f | FULL=0 HF=1
# [645000] WRITE : DATA=0x000000a0 | FULL=0 HF=1
# [649000] WRITE : DATA=0x000000a1 | FULL=0 HF=1
# [653000] WRITE : DATA=0x000000a2 | FULL=0 HF=1
# [657000] WRITE : DATA=0x000000a3 | FULL=0 HF=1
# [661000] WRITE : DATA=0x000000a4 | FULL=0 HF=1
# [665000] WRITE : DATA=0x000000a5 | FULL=0 HF=1
# [669000] WRITE : DATA=0x000000a6 | FULL=0 HF=1
# [673000] WRITE : DATA=0x000000a7 | FULL=0 HF=1
# [677000] WRITE : DATA=0x000000a8 | FULL=0 HF=1
# [681000] WRITE : DATA=0x000000a9 | FULL=0 HF=1
# [685000] WRITE : DATA=0x000000aa | FULL=0 HF=1
# [689000] WRITE : DATA=0x000000ab | FULL=0 HF=1
# [693000] WRITE : DATA=0x000000ac | FULL=0 HF=1
# [697000] WRITE : DATA=0x000000ad | FULL=0 HF=1
# [701000] WRITE : DATA=0x000000ae | FULL=0 HF=1
# [705000] WRITE : DATA=0x000000af | FULL=0 HF=1
# [709000] WRITE : DATA=0x000000b0 | FULL=0 HF=1
# [713000] WRITE : DATA=0x000000b1 | FULL=0 HF=1
# [717000] WRITE : DATA=0x000000b2 | FULL=0 HF=1
# [721000] WRITE : DATA=0x000000b3 | FULL=0 HF=1
# [725000] WRITE : DATA=0x000000b4 | FULL=0 HF=1
# [729000] WRITE : DATA=0x000000b5 | FULL=0 HF=1
# [733000] WRITE : DATA=0x000000b6 | FULL=0 HF=1
# [737000] WRITE : DATA=0x000000b7 | FULL=0 HF=1
# [741000] WRITE : DATA=0x000000b8 | FULL=0 HF=1
# [745000] WRITE : DATA=0x000000b9 | FULL=0 HF=1
# [749000] WRITE : DATA=0x000000ba | FULL=0 HF=1
# [753000] WRITE : DATA=0x000000bb | FULL=0 HF=1
# [757000] WRITE : DATA=0x000000bc | FULL=0 HF=1
# [761000] WRITE : DATA=0x000000bd | FULL=0 HF=1
# [765000] WRITE : DATA=0x000000be | FULL=0 HF=1
# [769000] WRITE : DATA=0x000000bf | FULL=0 HF=1
# [773000] WRITE : DATA=0x000000c0 | FULL=0 HF=1
# [777000] WRITE : DATA=0x000000c1 | FULL=0 HF=1
# [781000] WRITE : DATA=0x000000c2 | FULL=0 HF=1
# [785000] WRITE : DATA=0x000000c3 | FULL=0 HF=1
# [789000] WRITE : DATA=0x000000c4 | FULL=0 HF=1
# [793000] WRITE : DATA=0x000000c5 | FULL=0 HF=1
# [797000] WRITE : DATA=0x000000c6 | FULL=0 HF=1
# [801000] WRITE : DATA=0x000000c7 | FULL=0 HF=1
# [805000] WRITE : DATA=0x000000c8 | FULL=0 HF=1
# [809000] WRITE : DATA=0x000000c9 | FULL=0 HF=1
# [813000] WRITE : DATA=0x000000ca | FULL=0 HF=1
# [817000] WRITE : DATA=0x000000cb | FULL=0 HF=1
# [821000] WRITE : DATA=0x000000cc | FULL=0 HF=1
# [825000] WRITE : DATA=0x000000cd | FULL=0 HF=1
# [829000] WRITE : DATA=0x000000ce | FULL=0 HF=1
# [833000] WRITE : DATA=0x000000cf | FULL=0 HF=1
# [837000] WRITE : DATA=0x000000d0 | FULL=0 HF=1
# [841000] WRITE : DATA=0x000000d1 | FULL=0 HF=1
# [845000] WRITE : DATA=0x000000d2 | FULL=0 HF=1
# [849000] WRITE : DATA=0x000000d3 | FULL=0 HF=1
# [853000] WRITE : DATA=0x000000d4 | FULL=0 HF=1
# [857000] WRITE : DATA=0x000000d5 | FULL=0 HF=1
# [861000] WRITE : DATA=0x000000d6 | FULL=0 HF=1
# [865000] WRITE : DATA=0x000000d7 | FULL=0 HF=1
# [869000] WRITE : DATA=0x000000d8 | FULL=0 HF=1
# [873000] WRITE : DATA=0x000000d9 | FULL=0 HF=1
# [877000] WRITE : DATA=0x000000da | FULL=0 HF=1
# [881000] WRITE : DATA=0x000000db | FULL=0 HF=1
# [885000] WRITE : DATA=0x000000dc | FULL=0 HF=1
# [889000] WRITE : DATA=0x000000dd | FULL=0 HF=1
# [893000] WRITE : DATA=0x000000de | FULL=0 HF=1
# [897000] WRITE : DATA=0x000000df | FULL=0 HF=1
# [901000] WRITE : DATA=0x000000e0 | FULL=0 HF=1
# [905000] WRITE : DATA=0x000000e1 | FULL=0 HF=1
# [909000] WRITE : DATA=0x000000e2 | FULL=0 HF=1
# [913000] WRITE : DATA=0x000000e3 | FULL=0 HF=1
# [917000] WRITE : DATA=0x000000e4 | FULL=0 HF=1
# [921000] WRITE : DATA=0x000000e5 | FULL=0 HF=1
# [925000] WRITE : DATA=0x000000e6 | FULL=0 HF=1
# [929000] WRITE : DATA=0x000000e7 | FULL=0 HF=1
# [933000] WRITE : DATA=0x000000e8 | FULL=0 HF=1
# [937000] WRITE : DATA=0x000000e9 | FULL=0 HF=1
# [941000] WRITE : DATA=0x000000ea | FULL=0 HF=1
# [945000] WRITE : DATA=0x000000eb | FULL=0 HF=1
# [949000] WRITE : DATA=0x000000ec | FULL=0 HF=1
# [953000] WRITE : DATA=0x000000ed | FULL=0 HF=1
# [957000] WRITE : DATA=0x000000ee | FULL=0 HF=1
# [961000] WRITE : DATA=0x000000ef | FULL=0 HF=1
# [965000] WRITE : DATA=0x000000f0 | FULL=0 HF=1
# [969000] WRITE : DATA=0x000000f1 | FULL=0 HF=1
# [973000] WRITE : DATA=0x000000f2 | FULL=0 HF=1
# [977000] WRITE : DATA=0x000000f3 | FULL=0 HF=1
# [981000] WRITE : DATA=0x000000f4 | FULL=0 HF=1
# [985000] WRITE : DATA=0x000000f5 | FULL=0 HF=1
# [989000] WRITE : DATA=0x000000f6 | FULL=0 HF=1
# [993000] WRITE : DATA=0x000000f7 | FULL=0 HF=1
# [997000] WRITE : DATA=0x000000f8 | FULL=0 HF=1
# [1001000] WRITE : DATA=0x000000f9 | FULL=0 HF=1
# [1005000] WRITE : DATA=0x000000fa | FULL=0 HF=1
# [1009000] WRITE : DATA=0x000000fb | FULL=0 HF=1
# [1013000] WRITE : DATA=0x000000fc | FULL=0 HF=1
# [1017000] WRITE : DATA=0x000000fd | FULL=0 HF=1
# [1021000] WRITE : DATA=0x000000fe | FULL=0 HF=1
# [1025000] WRITE : DATA=0x000000ff | FULL=0 HF=1
# [1029000] WRITE : DATA=0x00000100 | FULL=0 HF=1
# [1033000] WRITE : DATA=0x0000dead | FULL=1 HF=1
# [1037000] WRITE : DATA=0x0000abcd | FULL=1 HF=1
# [1042000] READ  : DATA=0x00000000 | EMPTY=0 HE=0
# [1050000] READ  : DATA=0x00000001 | EMPTY=0 HE=0
# [1058000] READ  : DATA=0x00000002 | EMPTY=0 HE=0
# [1066000] READ  : DATA=0x00000003 | EMPTY=0 HE=0
# [1074000] READ  : DATA=0x00000004 | EMPTY=0 HE=0
# [1082000] READ  : DATA=0x00000005 | EMPTY=0 HE=0
# [1090000] READ  : DATA=0x00000006 | EMPTY=0 HE=0
# [1098000] READ  : DATA=0x00000007 | EMPTY=0 HE=0
# [1106000] READ  : DATA=0x00000008 | EMPTY=0 HE=0
# [1114000] READ  : DATA=0x00000009 | EMPTY=0 HE=0
# [1122000] READ  : DATA=0x0000000a | EMPTY=0 HE=0
# [1130000] READ  : DATA=0x0000000b | EMPTY=0 HE=0
# [1138000] READ  : DATA=0x0000000c | EMPTY=0 HE=0
# [1146000] READ  : DATA=0x0000000d | EMPTY=0 HE=0
# [1154000] READ  : DATA=0x0000000e | EMPTY=0 HE=0
# [1162000] READ  : DATA=0x0000000f | EMPTY=0 HE=0
# [1170000] READ  : DATA=0x00000010 | EMPTY=0 HE=0
# [1178000] READ  : DATA=0x00000011 | EMPTY=0 HE=0
# [1186000] READ  : DATA=0x00000012 | EMPTY=0 HE=0
# [1194000] READ  : DATA=0x00000013 | EMPTY=0 HE=0
# [1202000] READ  : DATA=0x00000014 | EMPTY=0 HE=0
# [1210000] READ  : DATA=0x00000015 | EMPTY=0 HE=0
# [1218000] READ  : DATA=0x00000016 | EMPTY=0 HE=0
# [1226000] READ  : DATA=0x00000017 | EMPTY=0 HE=0
# [1234000] READ  : DATA=0x00000018 | EMPTY=0 HE=0
# [1242000] READ  : DATA=0x00000019 | EMPTY=0 HE=0
# [1250000] READ  : DATA=0x0000001a | EMPTY=0 HE=0
# [1258000] READ  : DATA=0x0000001b | EMPTY=0 HE=0
# [1266000] READ  : DATA=0x0000001c | EMPTY=0 HE=0
# [1274000] READ  : DATA=0x0000001d | EMPTY=0 HE=0
# [1282000] READ  : DATA=0x0000001e | EMPTY=0 HE=0
# [1290000] READ  : DATA=0x0000001f | EMPTY=0 HE=0
# [1298000] READ  : DATA=0x00000020 | EMPTY=0 HE=0
# [1306000] READ  : DATA=0x00000021 | EMPTY=0 HE=0
# [1314000] READ  : DATA=0x00000022 | EMPTY=0 HE=0
# [1322000] READ  : DATA=0x00000023 | EMPTY=0 HE=0
# [1330000] READ  : DATA=0x00000024 | EMPTY=0 HE=0
# [1338000] READ  : DATA=0x00000025 | EMPTY=0 HE=0
# [1346000] READ  : DATA=0x00000026 | EMPTY=0 HE=0
# [1354000] READ  : DATA=0x00000027 | EMPTY=0 HE=0
# [1362000] READ  : DATA=0x00000028 | EMPTY=0 HE=0
# [1370000] READ  : DATA=0x00000029 | EMPTY=0 HE=0
# [1378000] READ  : DATA=0x0000002a | EMPTY=0 HE=0
# [1386000] READ  : DATA=0x0000002b | EMPTY=0 HE=0
# [1394000] READ  : DATA=0x0000002c | EMPTY=0 HE=0
# [1402000] READ  : DATA=0x0000002d | EMPTY=0 HE=0
# [1410000] READ  : DATA=0x0000002e | EMPTY=0 HE=0
# [1418000] READ  : DATA=0x0000002f | EMPTY=0 HE=0
# [1426000] READ  : DATA=0x00000030 | EMPTY=0 HE=0
# [1434000] READ  : DATA=0x00000031 | EMPTY=0 HE=0
# [1442000] READ  : DATA=0x00000032 | EMPTY=0 HE=0
# [1450000] READ  : DATA=0x00000033 | EMPTY=0 HE=0
# [1458000] READ  : DATA=0x00000034 | EMPTY=0 HE=0
# [1466000] READ  : DATA=0x00000035 | EMPTY=0 HE=0
# [1474000] READ  : DATA=0x00000036 | EMPTY=0 HE=0
# [1482000] READ  : DATA=0x00000037 | EMPTY=0 HE=0
# [1490000] READ  : DATA=0x00000038 | EMPTY=0 HE=0
# [1498000] READ  : DATA=0x00000039 | EMPTY=0 HE=0
# [1506000] READ  : DATA=0x0000003a | EMPTY=0 HE=0
# [1514000] READ  : DATA=0x0000003b | EMPTY=0 HE=0
# [1522000] READ  : DATA=0x0000003c | EMPTY=0 HE=0
# [1530000] READ  : DATA=0x0000003d | EMPTY=0 HE=0
# [1538000] READ  : DATA=0x0000003e | EMPTY=0 HE=0
# [1546000] READ  : DATA=0x0000003f | EMPTY=0 HE=0
# [1554000] READ  : DATA=0x00000040 | EMPTY=0 HE=0
# 
# === GEN: Reset FIFO and random R/W ===
# [1562000] READ  : DATA=0x00000041 | EMPTY=0 HE=0
# [1570000] READ  : DATA=0x00000042 | EMPTY=0 HE=0
# [1578000] READ  : DATA=0x00000043 | EMPTY=0 HE=0
# [1586000] READ  : DATA=0x00000044 | EMPTY=0 HE=0
# [1594000] READ  : DATA=0x00000045 | EMPTY=0 HE=0
# [1602000] READ  : DATA=0x00000046 | EMPTY=0 HE=0
# [1610000] READ  : DATA=0x00000047 | EMPTY=0 HE=0
# [1618000] READ  : DATA=0x00000048 | EMPTY=0 HE=0
# [1626000] READ  : DATA=0x00000049 | EMPTY=0 HE=0
# [1634000] READ  : DATA=0x0000004a | EMPTY=0 HE=0
# [1642000] READ  : DATA=0x0000004b | EMPTY=0 HE=0
# [1650000] READ  : DATA=0x0000004c | EMPTY=0 HE=0
# [1658000] READ  : DATA=0x0000004d | EMPTY=0 HE=0
# [1666000] READ  : DATA=0x0000004e | EMPTY=0 HE=0
# [1674000] READ  : DATA=0x0000004f | EMPTY=0 HE=0
# [1682000] READ  : DATA=0x00000050 | EMPTY=0 HE=0
# [1690000] READ  : DATA=0x00000051 | EMPTY=0 HE=0
# [1698000] READ  : DATA=0x00000052 | EMPTY=0 HE=0
# [1706000] READ  : DATA=0x00000053 | EMPTY=0 HE=0
# [1714000] READ  : DATA=0x00000054 | EMPTY=0 HE=0
# [1722000] READ  : DATA=0x00000055 | EMPTY=0 HE=0
# [1730000] READ  : DATA=0x00000056 | EMPTY=0 HE=0
# 
# === GEN: All phases complete ===
# [1738000] READ  : DATA=0x00000057 | EMPTY=0 HE=0
# [1746000] READ  : DATA=0x00000058 | EMPTY=0 HE=0
# [1754000] READ  : DATA=0x00000059 | EMPTY=0 HE=0
# [1762000] READ  : DATA=0x0000005a | EMPTY=0 HE=0
# [1770000] READ  : DATA=0x0000005b | EMPTY=0 HE=0
# [1778000] READ  : DATA=0x0000005c | EMPTY=0 HE=0
