M1/docs/transcript.txt
# Compile of async_fifo_latest.sv was successful.
# Compile of async_fifo_tb_latest.sv was successful.
# 2 compiles, 0 failed with no errors.
vsim work.async_fifo_tb -voptargs=+acc
# vsim work.async_fifo_tb -voptargs="+acc" 
# Start time: 20:43:24 on Apr 20,2025
# ** Note: (vsim-3813) Design is being optimized due to module recompilation...
# Loading sv_std.std
# Loading work.async_fifo_tb(fast)
# Loading work.async_fifo(fast)
run -all
# 
#  INITIATING THE TESTCASE 
# 
#  INITIATING THE TESTCASE 
# [WRITE at time =   15] wr_ptr=  0  data=0x00000000  full=0 hf=0  empty=1 he=1
# [WRITE at time =   17] wr_ptr=  1  data=0x00000001  full=0 hf=0  empty=1 he=1
# [WRITE at time =   19] wr_ptr=  2  data=0x00000002  full=0 hf=0  empty=1 he=1
# [WRITE at time =   21] wr_ptr=  3  data=0x00000003  full=0 hf=0  empty=1 he=1
# [WRITE at time =   23] wr_ptr=  4  data=0x00000004  full=0 hf=0  empty=1 he=1
# [WRITE at time =   25] wr_ptr=  5  data=0x00000005  full=0 hf=0  empty=1 he=1
# [WRITE at time =   27] wr_ptr=  6  data=0x00000006  full=0 hf=0  empty=0 he=1
# [WRITE at time =   29] wr_ptr=  7  data=0x00000007  full=0 hf=0  empty=0 he=1
# [WRITE at time =   31] wr_ptr=  8  data=0x00000008  full=0 hf=0  empty=0 he=1
# [WRITE at time =   33] wr_ptr=  9  data=0x00000009  full=0 hf=0  empty=0 he=1
# [WRITE at time =   35] wr_ptr= 10  data=0x0000000a  full=0 hf=0  empty=0 he=1
# [WRITE at time =   37] wr_ptr= 11  data=0x0000000b  full=0 hf=0  empty=0 he=1
# [WRITE at time =   39] wr_ptr= 12  data=0x0000000c  full=0 hf=0  empty=0 he=1
# [WRITE at time =   41] wr_ptr= 13  data=0x0000000d  full=0 hf=0  empty=0 he=1
# [WRITE at time =   43] wr_ptr= 14  data=0x0000000e  full=0 hf=0  empty=0 he=1
# [WRITE at time =   45] wr_ptr= 15  data=0x0000000f  full=0 hf=0  empty=0 he=1
# [WRITE at time =   47] wr_ptr= 16  data=0x00000010  full=0 hf=0  empty=0 he=1
# [WRITE at time =   49] wr_ptr= 17  data=0x00000011  full=0 hf=0  empty=0 he=1
# [WRITE at time =   51] wr_ptr= 18  data=0x00000012  full=0 hf=0  empty=0 he=1
# [WRITE at time =   53] wr_ptr= 19  data=0x00000013  full=0 hf=0  empty=0 he=1
# [WRITE at time =   55] wr_ptr= 20  data=0x00000014  full=0 hf=0  empty=0 he=1
# [WRITE at time =   57] wr_ptr= 21  data=0x00000015  full=0 hf=0  empty=0 he=1
# [WRITE at time =   59] wr_ptr= 22  data=0x00000016  full=0 hf=0  empty=0 he=1
# [WRITE at time =   61] wr_ptr= 23  data=0x00000017  full=0 hf=0  empty=0 he=1
# [WRITE at time =   63] wr_ptr= 24  data=0x00000018  full=0 hf=0  empty=0 he=1
# [WRITE at time =   65] wr_ptr= 25  data=0x00000019  full=0 hf=0  empty=0 he=1
# [WRITE at time =   67] wr_ptr= 26  data=0x0000001a  full=0 hf=0  empty=0 he=1
# [WRITE at time =   69] wr_ptr= 27  data=0x0000001b  full=0 hf=0  empty=0 he=1
# [WRITE at time =   71] wr_ptr= 28  data=0x0000001c  full=0 hf=0  empty=0 he=1
# [WRITE at time =   73] wr_ptr= 29  data=0x0000001d  full=0 hf=0  empty=0 he=1
# [WRITE at time =   75] wr_ptr= 30  data=0x0000001e  full=0 hf=0  empty=0 he=1
# [WRITE at time =   77] wr_ptr= 31  data=0x0000001f  full=0 hf=0  empty=0 he=1
# [WRITE at time =   79] wr_ptr= 32  data=0x00000020  full=0 hf=0  empty=0 he=1
# [WRITE at time =   81] wr_ptr= 33  data=0x00000021  full=0 hf=0  empty=0 he=1
# [WRITE at time =   83] wr_ptr= 34  data=0x00000022  full=0 hf=0  empty=0 he=1
# [WRITE at time =   85] wr_ptr= 35  data=0x00000023  full=0 hf=0  empty=0 he=1
# [WRITE at time =   87] wr_ptr= 36  data=0x00000024  full=0 hf=0  empty=0 he=1
# [WRITE at time =   89] wr_ptr= 37  data=0x00000025  full=0 hf=0  empty=0 he=1
# [WRITE at time =   91] wr_ptr= 38  data=0x00000026  full=0 hf=0  empty=0 he=1
# [WRITE at time =   93] wr_ptr= 39  data=0x00000027  full=0 hf=0  empty=0 he=1
# [WRITE at time =   95] wr_ptr= 40  data=0x00000028  full=0 hf=0  empty=0 he=1
# [WRITE at time =   97] wr_ptr= 41  data=0x00000029  full=0 hf=0  empty=0 he=1
# [WRITE at time =   99] wr_ptr= 42  data=0x0000002a  full=0 hf=0  empty=0 he=1
# [WRITE at time =  101] wr_ptr= 43  data=0x0000002b  full=0 hf=0  empty=0 he=1
# [WRITE at time =  103] wr_ptr= 44  data=0x0000002c  full=0 hf=0  empty=0 he=1
# [WRITE at time =  105] wr_ptr= 45  data=0x0000002d  full=0 hf=0  empty=0 he=1
# [WRITE at time =  107] wr_ptr= 46  data=0x0000002e  full=0 hf=0  empty=0 he=1
# [WRITE at time =  109] wr_ptr= 47  data=0x0000002f  full=0 hf=0  empty=0 he=1
# [WRITE at time =  111] wr_ptr= 48  data=0x00000030  full=0 hf=0  empty=0 he=1
# [WRITE at time =  113] wr_ptr= 49  data=0x00000031  full=0 hf=0  empty=0 he=1
# [WRITE at time =  115] wr_ptr= 50  data=0x00000032  full=0 hf=0  empty=0 he=1
# [WRITE at time =  117] wr_ptr= 51  data=0x00000033  full=0 hf=0  empty=0 he=1
# [WRITE at time =  119] wr_ptr= 52  data=0x00000034  full=0 hf=0  empty=0 he=1
# [WRITE at time =  121] wr_ptr= 53  data=0x00000035  full=0 hf=0  empty=0 he=1
# [WRITE at time =  123] wr_ptr= 54  data=0x00000036  full=0 hf=0  empty=0 he=1
# [WRITE at time =  125] wr_ptr= 55  data=0x00000037  full=0 hf=0  empty=0 he=1
# [WRITE at time =  127] wr_ptr= 56  data=0x00000038  full=0 hf=0  empty=0 he=1
# [WRITE at time =  129] wr_ptr= 57  data=0x00000039  full=0 hf=0  empty=0 he=1
# [WRITE at time =  131] wr_ptr= 58  data=0x0000003a  full=0 hf=0  empty=0 he=1
# [WRITE at time =  133] wr_ptr= 59  data=0x0000003b  full=0 hf=0  empty=0 he=1
# [WRITE at time =  135] wr_ptr= 60  data=0x0000003c  full=0 hf=0  empty=0 he=1
# [WRITE at time =  137] wr_ptr= 61  data=0x0000003d  full=0 hf=0  empty=0 he=1
# [WRITE at time =  139] wr_ptr= 62  data=0x0000003e  full=0 hf=0  empty=0 he=1
# [WRITE at time =  141] wr_ptr= 63  data=0x0000003f  full=0 hf=0  empty=0 he=1
# [WRITE at time =  143] wr_ptr= 64  data=0x00000040  full=0 hf=0  empty=0 he=1
# [WRITE at time =  145] wr_ptr= 65  data=0x00000041  full=0 hf=0  empty=0 he=1
# [WRITE at time =  147] wr_ptr= 66  data=0x00000042  full=0 hf=0  empty=0 he=1
# [WRITE at time =  149] wr_ptr= 67  data=0x00000043  full=0 hf=0  empty=0 he=1
# [WRITE at time =  151] wr_ptr= 68  data=0x00000044  full=0 hf=0  empty=0 he=1
# [WRITE at time =  153] wr_ptr= 69  data=0x00000045  full=0 hf=0  empty=0 he=1
# [WRITE at time =  155] wr_ptr= 70  data=0x00000046  full=0 hf=0  empty=0 he=1
# [WRITE at time =  157] wr_ptr= 71  data=0x00000047  full=0 hf=0  empty=0 he=1
# [WRITE at time =  159] wr_ptr= 72  data=0x00000048  full=0 hf=0  empty=0 he=1
# [WRITE at time =  161] wr_ptr= 73  data=0x00000049  full=0 hf=0  empty=0 he=1
# [WRITE at time =  163] wr_ptr= 74  data=0x0000004a  full=0 hf=0  empty=0 he=1
# [WRITE at time =  165] wr_ptr= 75  data=0x0000004b  full=0 hf=0  empty=0 he=1
# [WRITE at time =  167] wr_ptr= 76  data=0x0000004c  full=0 hf=0  empty=0 he=1
# [WRITE at time =  169] wr_ptr= 77  data=0x0000004d  full=0 hf=0  empty=0 he=1
# [WRITE at time =  171] wr_ptr= 78  data=0x0000004e  full=0 hf=0  empty=0 he=1
# [WRITE at time =  173] wr_ptr= 79  data=0x0000004f  full=0 hf=0  empty=0 he=1
# [WRITE at time =  175] wr_ptr= 80  data=0x00000050  full=0 hf=0  empty=0 he=1
# [WRITE at time =  177] wr_ptr= 81  data=0x00000051  full=0 hf=0  empty=0 he=1
# [WRITE at time =  179] wr_ptr= 82  data=0x00000052  full=0 hf=0  empty=0 he=1
# [WRITE at time =  181] wr_ptr= 83  data=0x00000053  full=0 hf=0  empty=0 he=1
# [WRITE at time =  183] wr_ptr= 84  data=0x00000054  full=0 hf=0  empty=0 he=1
# [WRITE at time =  185] wr_ptr= 85  data=0x00000055  full=0 hf=0  empty=0 he=1
# [WRITE at time =  187] wr_ptr= 86  data=0x00000056  full=0 hf=0  empty=0 he=1
# [WRITE at time =  189] wr_ptr= 87  data=0x00000057  full=0 hf=0  empty=0 he=1
# [WRITE at time =  191] wr_ptr= 88  data=0x00000058  full=0 hf=0  empty=0 he=1
# [WRITE at time =  193] wr_ptr= 89  data=0x00000059  full=0 hf=0  empty=0 he=1
# [WRITE at time =  195] wr_ptr= 90  data=0x0000005a  full=0 hf=0  empty=0 he=1
# [WRITE at time =  197] wr_ptr= 91  data=0x0000005b  full=0 hf=0  empty=0 he=1
# [WRITE at time =  199] wr_ptr= 92  data=0x0000005c  full=0 hf=0  empty=0 he=1
# [WRITE at time =  201] wr_ptr= 93  data=0x0000005d  full=0 hf=0  empty=0 he=1
# [WRITE at time =  203] wr_ptr= 94  data=0x0000005e  full=0 hf=0  empty=0 he=1
# [WRITE at time =  205] wr_ptr= 95  data=0x0000005f  full=0 hf=0  empty=0 he=1
# [WRITE at time =  207] wr_ptr= 96  data=0x00000060  full=0 hf=0  empty=0 he=1
# [WRITE at time =  209] wr_ptr= 97  data=0x00000061  full=0 hf=0  empty=0 he=1
# [WRITE at time =  211] wr_ptr= 98  data=0x00000062  full=0 hf=0  empty=0 he=1
# [WRITE at time =  213] wr_ptr= 99  data=0x00000063  full=0 hf=0  empty=0 he=1
# [WRITE at time =  215] wr_ptr=100  data=0x00000064  full=0 hf=0  empty=0 he=1
# [WRITE at time =  217] wr_ptr=101  data=0x00000065  full=0 hf=0  empty=0 he=1
# [WRITE at time =  219] wr_ptr=102  data=0x00000066  full=0 hf=0  empty=0 he=1
# [WRITE at time =  221] wr_ptr=103  data=0x00000067  full=0 hf=0  empty=0 he=1
# [WRITE at time =  223] wr_ptr=104  data=0x00000068  full=0 hf=0  empty=0 he=1
# [WRITE at time =  225] wr_ptr=105  data=0x00000069  full=0 hf=0  empty=0 he=1
# [WRITE at time =  227] wr_ptr=106  data=0x0000006a  full=0 hf=0  empty=0 he=1
# [WRITE at time =  229] wr_ptr=107  data=0x0000006b  full=0 hf=0  empty=0 he=1
# [WRITE at time =  231] wr_ptr=108  data=0x0000006c  full=0 hf=0  empty=0 he=1
# [WRITE at time =  233] wr_ptr=109  data=0x0000006d  full=0 hf=0  empty=0 he=1
# [WRITE at time =  235] wr_ptr=110  data=0x0000006e  full=0 hf=0  empty=0 he=1
# [WRITE at time =  237] wr_ptr=111  data=0x0000006f  full=0 hf=0  empty=0 he=1
# [WRITE at time =  239] wr_ptr=112  data=0x00000070  full=0 hf=0  empty=0 he=1
# [WRITE at time =  241] wr_ptr=113  data=0x00000071  full=0 hf=0  empty=0 he=1
# [WRITE at time =  243] wr_ptr=114  data=0x00000072  full=0 hf=0  empty=0 he=1
# [WRITE at time =  245] wr_ptr=115  data=0x00000073  full=0 hf=0  empty=0 he=1
# [WRITE at time =  247] wr_ptr=116  data=0x00000074  full=0 hf=0  empty=0 he=1
# [WRITE at time =  249] wr_ptr=117  data=0x00000075  full=0 hf=0  empty=0 he=1
# [WRITE at time =  251] wr_ptr=118  data=0x00000076  full=0 hf=0  empty=0 he=1
# [WRITE at time =  253] wr_ptr=119  data=0x00000077  full=0 hf=0  empty=0 he=1
# [WRITE at time =  255] wr_ptr=120  data=0x00000078  full=0 hf=0  empty=0 he=1
# [WRITE at time =  257] wr_ptr=121  data=0x00000079  full=0 hf=0  empty=0 he=1
# [WRITE at time =  259] wr_ptr=122  data=0x0000007a  full=0 hf=0  empty=0 he=1
# [WRITE at time =  261] wr_ptr=123  data=0x0000007b  full=0 hf=0  empty=0 he=1
# [WRITE at time =  263] wr_ptr=124  data=0x0000007c  full=0 hf=0  empty=0 he=1
# [WRITE at time =  265] wr_ptr=125  data=0x0000007d  full=0 hf=0  empty=0 he=1
# [WRITE at time =  267] wr_ptr=126  data=0x0000007e  full=0 hf=0  empty=0 he=1
# [WRITE at time =  269] wr_ptr=127  data=0x0000007f  full=0 hf=0  empty=0 he=1
# [WRITE at time =  271] wr_ptr=128  data=0x00000080  full=0 hf=1  empty=0 he=1
# [WRITE at time =  273] wr_ptr=129  data=0x00000081  full=0 hf=1  empty=0 he=1
# [WRITE at time =  275] wr_ptr=130  data=0x00000082  full=0 hf=1  empty=0 he=1
# [WRITE at time =  277] wr_ptr=131  data=0x00000083  full=0 hf=1  empty=0 he=1
# [WRITE at time =  279] wr_ptr=132  data=0x00000084  full=0 hf=1  empty=0 he=1
# [WRITE at time =  281] wr_ptr=133  data=0x00000085  full=0 hf=1  empty=0 he=1
# [WRITE at time =  283] wr_ptr=134  data=0x00000086  full=0 hf=1  empty=0 he=0
# [WRITE at time =  285] wr_ptr=135  data=0x00000087  full=0 hf=1  empty=0 he=0
# [WRITE at time =  287] wr_ptr=136  data=0x00000088  full=0 hf=1  empty=0 he=0
# [WRITE at time =  289] wr_ptr=137  data=0x00000089  full=0 hf=1  empty=0 he=0
# [WRITE at time =  291] wr_ptr=138  data=0x0000008a  full=0 hf=1  empty=0 he=0
# [WRITE at time =  293] wr_ptr=139  data=0x0000008b  full=0 hf=1  empty=0 he=0
# [WRITE at time =  295] wr_ptr=140  data=0x0000008c  full=0 hf=1  empty=0 he=0
# [WRITE at time =  297] wr_ptr=141  data=0x0000008d  full=0 hf=1  empty=0 he=0
# [WRITE at time =  299] wr_ptr=142  data=0x0000008e  full=0 hf=1  empty=0 he=0
# [WRITE at time =  301] wr_ptr=143  data=0x0000008f  full=0 hf=1  empty=0 he=0
# [WRITE at time =  303] wr_ptr=144  data=0x00000090  full=0 hf=1  empty=0 he=0
# [WRITE at time =  305] wr_ptr=145  data=0x00000091  full=0 hf=1  empty=0 he=0
# [WRITE at time =  307] wr_ptr=146  data=0x00000092  full=0 hf=1  empty=0 he=0
# [WRITE at time =  309] wr_ptr=147  data=0x00000093  full=0 hf=1  empty=0 he=0
# [WRITE at time =  311] wr_ptr=148  data=0x00000094  full=0 hf=1  empty=0 he=0
# [WRITE at time =  313] wr_ptr=149  data=0x00000095  full=0 hf=1  empty=0 he=0
# [WRITE at time =  315] wr_ptr=150  data=0x00000096  full=0 hf=1  empty=0 he=0
# [WRITE at time =  317] wr_ptr=151  data=0x00000097  full=0 hf=1  empty=0 he=0
# [WRITE at time =  319] wr_ptr=152  data=0x00000098  full=0 hf=1  empty=0 he=0
# [WRITE at time =  321] wr_ptr=153  data=0x00000099  full=0 hf=1  empty=0 he=0
# [WRITE at time =  323] wr_ptr=154  data=0x0000009a  full=0 hf=1  empty=0 he=0
# [WRITE at time =  325] wr_ptr=155  data=0x0000009b  full=0 hf=1  empty=0 he=0
# [WRITE at time =  327] wr_ptr=156  data=0x0000009c  full=0 hf=1  empty=0 he=0
# [WRITE at time =  329] wr_ptr=157  data=0x0000009d  full=0 hf=1  empty=0 he=0
# [WRITE at time =  331] wr_ptr=158  data=0x0000009e  full=0 hf=1  empty=0 he=0
# [WRITE at time =  333] wr_ptr=159  data=0x0000009f  full=0 hf=1  empty=0 he=0
# [WRITE at time =  335] wr_ptr=160  data=0x000000a0  full=0 hf=1  empty=0 he=0
# [WRITE at time =  337] wr_ptr=161  data=0x000000a1  full=0 hf=1  empty=0 he=0
# [WRITE at time =  339] wr_ptr=162  data=0x000000a2  full=0 hf=1  empty=0 he=0
# [WRITE at time =  341] wr_ptr=163  data=0x000000a3  full=0 hf=1  empty=0 he=0
# [WRITE at time =  343] wr_ptr=164  data=0x000000a4  full=0 hf=1  empty=0 he=0
# [WRITE at time =  345] wr_ptr=165  data=0x000000a5  full=0 hf=1  empty=0 he=0
# [WRITE at time =  347] wr_ptr=166  data=0x000000a6  full=0 hf=1  empty=0 he=0
# [WRITE at time =  349] wr_ptr=167  data=0x000000a7  full=0 hf=1  empty=0 he=0
# [WRITE at time =  351] wr_ptr=168  data=0x000000a8  full=0 hf=1  empty=0 he=0
# [WRITE at time =  353] wr_ptr=169  data=0x000000a9  full=0 hf=1  empty=0 he=0
# [WRITE at time =  355] wr_ptr=170  data=0x000000aa  full=0 hf=1  empty=0 he=0
# [WRITE at time =  357] wr_ptr=171  data=0x000000ab  full=0 hf=1  empty=0 he=0
# [WRITE at time =  359] wr_ptr=172  data=0x000000ac  full=0 hf=1  empty=0 he=0
# [WRITE at time =  361] wr_ptr=173  data=0x000000ad  full=0 hf=1  empty=0 he=0
# [WRITE at time =  363] wr_ptr=174  data=0x000000ae  full=0 hf=1  empty=0 he=0
# [WRITE at time =  365] wr_ptr=175  data=0x000000af  full=0 hf=1  empty=0 he=0
# [WRITE at time =  367] wr_ptr=176  data=0x000000b0  full=0 hf=1  empty=0 he=0
# [WRITE at time =  369] wr_ptr=177  data=0x000000b1  full=0 hf=1  empty=0 he=0
# [WRITE at time =  371] wr_ptr=178  data=0x000000b2  full=0 hf=1  empty=0 he=0
# [WRITE at time =  373] wr_ptr=179  data=0x000000b3  full=0 hf=1  empty=0 he=0
# [WRITE at time =  375] wr_ptr=180  data=0x000000b4  full=0 hf=1  empty=0 he=0
# [WRITE at time =  377] wr_ptr=181  data=0x000000b5  full=0 hf=1  empty=0 he=0
# [WRITE at time =  379] wr_ptr=182  data=0x000000b6  full=0 hf=1  empty=0 he=0
# [WRITE at time =  381] wr_ptr=183  data=0x000000b7  full=0 hf=1  empty=0 he=0
# [WRITE at time =  383] wr_ptr=184  data=0x000000b8  full=0 hf=1  empty=0 he=0
# [WRITE at time =  385] wr_ptr=185  data=0x000000b9  full=0 hf=1  empty=0 he=0
# [WRITE at time =  387] wr_ptr=186  data=0x000000ba  full=0 hf=1  empty=0 he=0
# [WRITE at time =  389] wr_ptr=187  data=0x000000bb  full=0 hf=1  empty=0 he=0
# [WRITE at time =  391] wr_ptr=188  data=0x000000bc  full=0 hf=1  empty=0 he=0
# [WRITE at time =  393] wr_ptr=189  data=0x000000bd  full=0 hf=1  empty=0 he=0
# [WRITE at time =  395] wr_ptr=190  data=0x000000be  full=0 hf=1  empty=0 he=0
# [WRITE at time =  397] wr_ptr=191  data=0x000000bf  full=0 hf=1  empty=0 he=0
# [WRITE at time =  399] wr_ptr=192  data=0x000000c0  full=0 hf=1  empty=0 he=0
# [WRITE at time =  401] wr_ptr=193  data=0x000000c1  full=0 hf=1  empty=0 he=0
# [WRITE at time =  403] wr_ptr=194  data=0x000000c2  full=0 hf=1  empty=0 he=0
# [WRITE at time =  405] wr_ptr=195  data=0x000000c3  full=0 hf=1  empty=0 he=0
# [WRITE at time =  407] wr_ptr=196  data=0x000000c4  full=0 hf=1  empty=0 he=0
# [WRITE at time =  409] wr_ptr=197  data=0x000000c5  full=0 hf=1  empty=0 he=0
# [WRITE at time =  411] wr_ptr=198  data=0x000000c6  full=0 hf=1  empty=0 he=0
# [WRITE at time =  413] wr_ptr=199  data=0x000000c7  full=0 hf=1  empty=0 he=0
# [WRITE at time =  415] wr_ptr=200  data=0x000000c8  full=0 hf=1  empty=0 he=0
# [WRITE at time =  417] wr_ptr=201  data=0x000000c9  full=0 hf=1  empty=0 he=0
# [WRITE at time =  419] wr_ptr=202  data=0x000000ca  full=0 hf=1  empty=0 he=0
# [WRITE at time =  421] wr_ptr=203  data=0x000000cb  full=0 hf=1  empty=0 he=0
# [WRITE at time =  423] wr_ptr=204  data=0x000000cc  full=0 hf=1  empty=0 he=0
# [WRITE at time =  425] wr_ptr=205  data=0x000000cd  full=0 hf=1  empty=0 he=0
# [WRITE at time =  427] wr_ptr=206  data=0x000000ce  full=0 hf=1  empty=0 he=0
# [WRITE at time =  429] wr_ptr=207  data=0x000000cf  full=0 hf=1  empty=0 he=0
# [WRITE at time =  431] wr_ptr=208  data=0x000000d0  full=0 hf=1  empty=0 he=0
# [WRITE at time =  433] wr_ptr=209  data=0x000000d1  full=0 hf=1  empty=0 he=0
# [WRITE at time =  435] wr_ptr=210  data=0x000000d2  full=0 hf=1  empty=0 he=0
# [WRITE at time =  437] wr_ptr=211  data=0x000000d3  full=0 hf=1  empty=0 he=0
# [WRITE at time =  439] wr_ptr=212  data=0x000000d4  full=0 hf=1  empty=0 he=0
# [WRITE at time =  441] wr_ptr=213  data=0x000000d5  full=0 hf=1  empty=0 he=0
# [WRITE at time =  443] wr_ptr=214  data=0x000000d6  full=0 hf=1  empty=0 he=0
# [WRITE at time =  445] wr_ptr=215  data=0x000000d7  full=0 hf=1  empty=0 he=0
# [WRITE at time =  447] wr_ptr=216  data=0x000000d8  full=0 hf=1  empty=0 he=0
# [WRITE at time =  449] wr_ptr=217  data=0x000000d9  full=0 hf=1  empty=0 he=0
# [WRITE at time =  451] wr_ptr=218  data=0x000000da  full=0 hf=1  empty=0 he=0
# [WRITE at time =  453] wr_ptr=219  data=0x000000db  full=0 hf=1  empty=0 he=0
# [WRITE at time =  455] wr_ptr=220  data=0x000000dc  full=0 hf=1  empty=0 he=0
# [WRITE at time =  457] wr_ptr=221  data=0x000000dd  full=0 hf=1  empty=0 he=0
# [WRITE at time =  459] wr_ptr=222  data=0x000000de  full=0 hf=1  empty=0 he=0
# [WRITE at time =  461] wr_ptr=223  data=0x000000df  full=0 hf=1  empty=0 he=0
# [WRITE at time =  463] wr_ptr=224  data=0x000000e0  full=0 hf=1  empty=0 he=0
# [WRITE at time =  465] wr_ptr=225  data=0x000000e1  full=0 hf=1  empty=0 he=0
# [WRITE at time =  467] wr_ptr=226  data=0x000000e2  full=0 hf=1  empty=0 he=0
# [WRITE at time =  469] wr_ptr=227  data=0x000000e3  full=0 hf=1  empty=0 he=0
# [WRITE at time =  471] wr_ptr=228  data=0x000000e4  full=0 hf=1  empty=0 he=0
# [WRITE at time =  473] wr_ptr=229  data=0x000000e5  full=0 hf=1  empty=0 he=0
# [WRITE at time =  475] wr_ptr=230  data=0x000000e6  full=0 hf=1  empty=0 he=0
# [WRITE at time =  477] wr_ptr=231  data=0x000000e7  full=0 hf=1  empty=0 he=0
# [WRITE at time =  479] wr_ptr=232  data=0x000000e8  full=0 hf=1  empty=0 he=0
# [WRITE at time =  481] wr_ptr=233  data=0x000000e9  full=0 hf=1  empty=0 he=0
# [WRITE at time =  483] wr_ptr=234  data=0x000000ea  full=0 hf=1  empty=0 he=0
# [WRITE at time =  485] wr_ptr=235  data=0x000000eb  full=0 hf=1  empty=0 he=0
# [WRITE at time =  487] wr_ptr=236  data=0x000000ec  full=0 hf=1  empty=0 he=0
# [WRITE at time =  489] wr_ptr=237  data=0x000000ed  full=0 hf=1  empty=0 he=0
# [WRITE at time =  491] wr_ptr=238  data=0x000000ee  full=0 hf=1  empty=0 he=0
# [WRITE at time =  493] wr_ptr=239  data=0x000000ef  full=0 hf=1  empty=0 he=0
# [WRITE at time =  495] wr_ptr=240  data=0x000000f0  full=0 hf=1  empty=0 he=0
# [WRITE at time =  497] wr_ptr=241  data=0x000000f1  full=0 hf=1  empty=0 he=0
# [WRITE at time =  499] wr_ptr=242  data=0x000000f2  full=0 hf=1  empty=0 he=0
# [WRITE at time =  501] wr_ptr=243  data=0x000000f3  full=0 hf=1  empty=0 he=0
# [WRITE at time =  503] wr_ptr=244  data=0x000000f4  full=0 hf=1  empty=0 he=0
# [WRITE at time =  505] wr_ptr=245  data=0x000000f5  full=0 hf=1  empty=0 he=0
# [WRITE at time =  507] wr_ptr=246  data=0x000000f6  full=0 hf=1  empty=0 he=0
# [WRITE at time =  509] wr_ptr=247  data=0x000000f7  full=0 hf=1  empty=0 he=0
# [WRITE at time =  511] wr_ptr=248  data=0x000000f8  full=0 hf=1  empty=0 he=0
# [WRITE at time =  513] wr_ptr=249  data=0x000000f9  full=0 hf=1  empty=0 he=0
# [WRITE at time =  515] wr_ptr=250  data=0x000000fa  full=0 hf=1  empty=0 he=0
# [WRITE at time =  517] wr_ptr=251  data=0x000000fb  full=0 hf=1  empty=0 he=0
# [WRITE at time =  519] wr_ptr=252  data=0x000000fc  full=0 hf=1  empty=0 he=0
# [WRITE at time =  521] wr_ptr=253  data=0x000000fd  full=0 hf=1  empty=0 he=0
# [WRITE at time =  523] wr_ptr=254  data=0x000000fe  full=0 hf=1  empty=0 he=0
# [WRITE at time =  525] wr_ptr=255  data=0x000000ff  full=0 hf=1  empty=0 he=0
# [WRITE at time =  527] wr_ptr=256  data=0x00000100  full=1 hf=1  empty=0 he=0
# [READ at time =  530] rd_ptr=  0  data=0x00000000  full=1 hf=1  empty=0 he=0
# [READ at time =  534] rd_ptr=  1  data=0x00000000  full=1 hf=1  empty=0 he=0
# [READ at time =  538] rd_ptr=  2  data=0x00000001  full=0 hf=1  empty=0 he=0
# [READ at time =  542] rd_ptr=  3  data=0x00000002  full=0 hf=1  empty=0 he=0
# [READ at time =  546] rd_ptr=  4  data=0x00000003  full=0 hf=1  empty=0 he=0
# [READ at time =  550] rd_ptr=  5  data=0x00000004  full=0 hf=1  empty=0 he=0
# [READ at time =  554] rd_ptr=  6  data=0x00000005  full=0 hf=1  empty=0 he=0
# [READ at time =  558] rd_ptr=  7  data=0x00000006  full=0 hf=1  empty=0 he=0
# [READ at time =  562] rd_ptr=  8  data=0x00000007  full=0 hf=1  empty=0 he=0
# [READ at time =  566] rd_ptr=  9  data=0x00000008  full=0 hf=1  empty=0 he=0
# [READ at time =  570] rd_ptr= 10  data=0x00000009  full=0 hf=1  empty=0 he=0
# [READ at time =  574] rd_ptr= 11  data=0x0000000a  full=0 hf=1  empty=0 he=0
# [READ at time =  578] rd_ptr= 12  data=0x0000000b  full=0 hf=1  empty=0 he=0
# [READ at time =  582] rd_ptr= 13  data=0x0000000c  full=0 hf=1  empty=0 he=0
# [READ at time =  586] rd_ptr= 14  data=0x0000000d  full=0 hf=1  empty=0 he=0
# [READ at time =  590] rd_ptr= 15  data=0x0000000e  full=0 hf=1  empty=0 he=0
# [READ at time =  594] rd_ptr= 16  data=0x0000000f  full=0 hf=1  empty=0 he=0
# [READ at time =  598] rd_ptr= 17  data=0x00000010  full=0 hf=1  empty=0 he=0
# [READ at time =  602] rd_ptr= 18  data=0x00000011  full=0 hf=1  empty=0 he=0
# [READ at time =  606] rd_ptr= 19  data=0x00000012  full=0 hf=1  empty=0 he=0
# [READ at time =  610] rd_ptr= 20  data=0x00000013  full=0 hf=1  empty=0 he=0
# [READ at time =  614] rd_ptr= 21  data=0x00000014  full=0 hf=1  empty=0 he=0
# [READ at time =  618] rd_ptr= 22  data=0x00000015  full=0 hf=1  empty=0 he=0
# [READ at time =  622] rd_ptr= 23  data=0x00000016  full=0 hf=1  empty=0 he=0
# [READ at time =  626] rd_ptr= 24  data=0x00000017  full=0 hf=1  empty=0 he=0
# [READ at time =  630] rd_ptr= 25  data=0x00000018  full=0 hf=1  empty=0 he=0
# [READ at time =  634] rd_ptr= 26  data=0x00000019  full=0 hf=1  empty=0 he=0
# [READ at time =  638] rd_ptr= 27  data=0x0000001a  full=0 hf=1  empty=0 he=0
# [READ at time =  642] rd_ptr= 28  data=0x0000001b  full=0 hf=1  empty=0 he=0
# [READ at time =  646] rd_ptr= 29  data=0x0000001c  full=0 hf=1  empty=0 he=0
# [READ at time =  650] rd_ptr= 30  data=0x0000001d  full=0 hf=1  empty=0 he=0
# [READ at time =  654] rd_ptr= 31  data=0x0000001e  full=0 hf=1  empty=0 he=0
# [READ at time =  658] rd_ptr= 32  data=0x0000001f  full=0 hf=1  empty=0 he=0
# [READ at time =  662] rd_ptr= 33  data=0x00000020  full=0 hf=1  empty=0 he=0
# [READ at time =  666] rd_ptr= 34  data=0x00000021  full=0 hf=1  empty=0 he=0
# [READ at time =  670] rd_ptr= 35  data=0x00000022  full=0 hf=1  empty=0 he=0
# [READ at time =  674] rd_ptr= 36  data=0x00000023  full=0 hf=1  empty=0 he=0
# [READ at time =  678] rd_ptr= 37  data=0x00000024  full=0 hf=1  empty=0 he=0
# [READ at time =  682] rd_ptr= 38  data=0x00000025  full=0 hf=1  empty=0 he=0
# [READ at time =  686] rd_ptr= 39  data=0x00000026  full=0 hf=1  empty=0 he=0
# [READ at time =  690] rd_ptr= 40  data=0x00000027  full=0 hf=1  empty=0 he=0
# [READ at time =  694] rd_ptr= 41  data=0x00000028  full=0 hf=1  empty=0 he=0
# [READ at time =  698] rd_ptr= 42  data=0x00000029  full=0 hf=1  empty=0 he=0
# [READ at time =  702] rd_ptr= 43  data=0x0000002a  full=0 hf=1  empty=0 he=0
# [READ at time =  706] rd_ptr= 44  data=0x0000002b  full=0 hf=1  empty=0 he=0
# [READ at time =  710] rd_ptr= 45  data=0x0000002c  full=0 hf=1  empty=0 he=0
# [READ at time =  714] rd_ptr= 46  data=0x0000002d  full=0 hf=1  empty=0 he=0
# [READ at time =  718] rd_ptr= 47  data=0x0000002e  full=0 hf=1  empty=0 he=0
# [READ at time =  722] rd_ptr= 48  data=0x0000002f  full=0 hf=1  empty=0 he=0
# [READ at time =  726] rd_ptr= 49  data=0x00000030  full=0 hf=1  empty=0 he=0
# [READ at time =  730] rd_ptr= 50  data=0x00000031  full=0 hf=1  empty=0 he=0
